{
    "filesize": "",
    "keyword": "",
    "list": [
        {
            "ID": "ed0acb524cdd438eb44ebc7a0e99a630",
            "EPS_NAME": "云南盘龙云海药业有限公司",
            "PRODUCT_SN": "云妆20160029",
            "CITY_CODE": "206",
            "XK_COMPLETE_DATE": {
                "date": 31,
                "day": 1,
                "hours": 0,
                "minutes": 0,
                "month": 7,
                "nanos": 0,
                "seconds": 0,
                "time": 1598803200000,
                "timezoneOffset": -480,
                "year": 120
            },
            "XK_DATE": "2021-12-20",
            "QF_MANAGER_NAME": "云南省药品监督管理局",
            "BUSINESS_LICENSE_NUMBER": "915323007194728189",
            "XC_DATE": "2020-08-31",
            "NUM_": 16
        },
        {
            "ID": "924b20b6daf5406f9f2591bd91acbeac",
            "EPS_NAME": "四川宁斐美容化妆品有限公司",
            "PRODUCT_SN": "川妆20160019",
            "CITY_CODE": "186",
            "XK_COMPLETE_DATE": {
                "date": 31,
                "day": 1,
                "hours": 0,
                "minutes": 0,
                "month": 7,
                "nanos": 0,
                "seconds": 0,
                "time": 1598803200000,
                "timezoneOffset": -480,
                "year": 120
            },
            "XK_DATE": "2021-11-29",
            "QF_MANAGER_NAME": "四川省药品监督管理局",
            "BUSINESS_LICENSE_NUMBER": "91510681696962346A",
            "XC_DATE": "2020-08-31",
            "NUM_": 17
        },
        {
            "ID": "2c6260fb9c57420b85e94c885b589972",
            "EPS_NAME": "苏州元美科技有限公司",
            "PRODUCT_SN": "苏妆20200008",
            "CITY_CODE": "84",
            "XK_COMPLETE_DATE": {
                "date": 28,
                "day": 5,
                "hours": 0,
                "minutes": 0,
                "month": 7,
                "nanos": 0,
                "seconds": 0,
                "time": 1598544000000,
                "timezoneOffset": -480,
                "year": 120
            },
            "XK_DATE": "2025-06-01",
            "QF_MANAGER_NAME": "江苏省药品监督管理局",
            "BUSINESS_LICENSE_NUMBER": "91320594MA20LL6439",
            "XC_DATE": "2020-08-28",
            "NUM_": 18
        },
        {
            "ID": "45e41928bd944d8284aea1610421fba6",
            "EPS_NAME": "扬州戴春林化妆品有限公司",
            "PRODUCT_SN": "苏妆20160043",
            "CITY_CODE": "86",
            "XK_COMPLETE_DATE": {
                "date": 28,
                "day": 5,
                "hours": 0,
                "minutes": 0,
                "month": 7,
                "nanos": 0,
                "seconds": 0,
                "time": 1598544000000,
                "timezoneOffset": -480,
                "year": 120
            },
            "XK_DATE": "2024-05-21",
            "QF_MANAGER_NAME": "江苏省药品监督管理局",
            "BUSINESS_LICENSE_NUMBER": "91321003695539300K",
            "XC_DATE": "2020-08-28",
            "NUM_": 19
        },
        {
            "ID": "103caf86662d441d810dacc7dbb109a8",
            "EPS_NAME": "成都伊曼生物美容保健品有限公司",
            "PRODUCT_SN": "川妆20160026",
            "CITY_CODE": "165",
            "XK_COMPLETE_DATE": {
                "date": 28,
                "day": 5,
                "hours": 0,
                "minutes": 0,
                "month": 7,
                "nanos": 0,
                "seconds": 0,
                "time": 1598544000000,
                "timezoneOffset": -480,
                "year": 120
            },
            "XK_DATE": "2021-12-05",
            "QF_MANAGER_NAME": "四川省药品监督管理局",
            "BUSINESS_LICENSE_NUMBER": "91510122737710015M",
            "XC_DATE": "2020-08-28",
            "NUM_": 20
        },
        {
            "ID": "e1ce412833cd4a13a9a98b7625b6bfce",
            "EPS_NAME": "福州迪玫雅生物科技有限公司",
            "PRODUCT_SN": "闽妆20200008",
            "CITY_CODE": "135",
            "XK_COMPLETE_DATE": {
                "date": 27,
                "day": 4,
                "hours": 0,
                "minutes": 0,
                "month": 7,
                "nanos": 0,
                "seconds": 0,
                "time": 1598457600000,
                "timezoneOffset": -480,
                "year": 120
            },
            "XK_DATE": "2025-08-26",
            "QF_MANAGER_NAME": "福建省药品监督管理局",
            "BUSINESS_LICENSE_NUMBER": "91350104MA34628G6Q",
            "XC_DATE": "2020-08-27",
            "NUM_": 21
        },
        {
            "ID": "854ab1b4acc641638fbadc5de18d49a8",
            "EPS_NAME": "昆山永青化妆品有限公司",
            "PRODUCT_SN": "苏妆20160189",
            "CITY_CODE": "84",
            "XK_COMPLETE_DATE": {
                "date": 25,
                "day": 2,
                "hours": 0,
                "minutes": 0,
                "month": 7,
                "nanos": 0,
                "seconds": 0,
                "time": 1598284800000,
                "timezoneOffset": -480,
                "year": 120
            },
            "XK_DATE": "2022-11-17",
            "QF_MANAGER_NAME": "江苏省药品监督管理局",
            "BUSINESS_LICENSE_NUMBER": "91320583714047388Y",
            "XC_DATE": "2020-08-25",
            "NUM_": 22
        },
        {
            "ID": "c02924ad469a42cb974d1d70fc8f2cd7",
            "EPS_NAME": "莹特丽科技（苏州工业园区）有限公司",
            "PRODUCT_SN": "苏妆20160098",
            "CITY_CODE": "84",
            "XK_COMPLETE_DATE": {
                "date": 25,
                "day": 2,
                "hours": 0,
                "minutes": 0,
                "month": 7,
                "nanos": 0,
                "seconds": 0,
                "time": 1598284800000,
                "timezoneOffset": -480,
                "year": 120
            },
            "XK_DATE": "2024-03-11",
            "QF_MANAGER_NAME": "江苏省药品监督管理局",
            "BUSINESS_LICENSE_NUMBER": "9132059477689665XQ",
            "XC_DATE": "2020-08-25",
            "NUM_": 23
        },
        {
            "ID": "92f22bb93c864abdad8027f1508716d3",
            "EPS_NAME": "福建豪锦化妆品有限公司",
            "PRODUCT_SN": "闽妆20160028",
            "CITY_CODE": "140",
            "XK_COMPLETE_DATE": {
                "date": 25,
                "day": 2,
                "hours": 0,
                "minutes": 0,
                "month": 7,
                "nanos": 0,
                "seconds": 0,
                "time": 1598284800000,
                "timezoneOffset": -480,
                "year": 120
            },
            "XK_DATE": "2021-12-14",
            "QF_MANAGER_NAME": "福建省药品监督管理局",
            "BUSINESS_LICENSE_NUMBER": "913506225532104542",
            "XC_DATE": "2020-08-25",
            "NUM_": 24
        },
        {
            "ID": "0ea4126175e24f6084f9cfc0dd04bc04",
            "EPS_NAME": "天津市旺通工贸有限公司丽芬化妆品厂",
            "PRODUCT_SN": "津妆20160020",
            "CITY_CODE": "412",
            "XK_COMPLETE_DATE": {
                "date": 25,
                "day": 2,
                "hours": 0,
                "minutes": 0,
                "month": 7,
                "nanos": 0,
                "seconds": 0,
                "time": 1598284800000,
                "timezoneOffset": -480,
                "year": 120
            },
            "XK_DATE": "2021-10-17",
            "QF_MANAGER_NAME": "天津市市场和质量监督管理委员会",
            "BUSINESS_LICENSE_NUMBER": "91120111727537351L",
            "XC_DATE": "2020-08-25",
            "NUM_": 25
        },
        {
            "ID": "578beb015c15407eb6e2189a03da1b3a",
            "EPS_NAME": "吉林万通集团通化清水丽人化妆品有限公司",
            "PRODUCT_SN": "吉妆20160020",
            "CITY_CODE": "279",
            "XK_COMPLETE_DATE": {
                "date": 25,
                "day": 2,
                "hours": 0,
                "minutes": 0,
                "month": 7,
                "nanos": 0,
                "seconds": 0,
                "time": 1598284800000,
                "timezoneOffset": -480,
                "year": 120
            },
            "XK_DATE": "2024-12-09",
            "QF_MANAGER_NAME": "吉林省药品监督管理局",
            "BUSINESS_LICENSE_NUMBER": "91220502726730598G",
            "XC_DATE": "2020-08-25",
            "NUM_": 26
        },
        {
            "ID": "3c9b165e807445a3835c4b5567bfece0",
            "EPS_NAME": "南京佳原堂生物科技有限公司",
            "PRODUCT_SN": "苏妆20190031",
            "CITY_CODE": "81",
            "XK_COMPLETE_DATE": {
                "date": 24,
                "day": 1,
                "hours": 0,
                "minutes": 0,
                "month": 7,
                "nanos": 0,
                "seconds": 0,
                "time": 1598198400000,
                "timezoneOffset": -480,
                "year": 120
            },
            "XK_DATE": "2024-12-10",
            "QF_MANAGER_NAME": "江苏省药品监督管理局",
            "BUSINESS_LICENSE_NUMBER": "91320115MA1XEWGH3D",
            "XC_DATE": "2020-08-24",
            "NUM_": 27
        },
        {
            "ID": "cfa8ffea45c047ca8f0f80b88a1f4383",
            "EPS_NAME": "厦门市亮蓝生物科技有限公司",
            "PRODUCT_SN": "闽妆20170031",
            "CITY_CODE": "136",
            "XK_COMPLETE_DATE": {
                "date": 24,
                "day": 1,
                "hours": 0,
                "minutes": 0,
                "month": 7,
                "nanos": 0,
                "seconds": 0,
                "time": 1598198400000,
                "timezoneOffset": -480,
                "year": 120
            },
            "XK_DATE": "2022-08-07",
            "QF_MANAGER_NAME": "福建省药品监督管理局",
            "BUSINESS_LICENSE_NUMBER": "9135021275161779XP",
            "XC_DATE": "2020-08-24",
            "NUM_": 28
        },
        {
            "ID": "888b859f3a25438aaf9e8dfc9f4c062a",
            "EPS_NAME": "蜀草集生物医药科技（重庆）有限公司",
            "PRODUCT_SN": "渝妆20200001",
            "CITY_CODE": "450",
            "XK_COMPLETE_DATE": {
                "date": 19,
                "day": 3,
                "hours": 0,
                "minutes": 0,
                "month": 7,
                "nanos": 0,
                "seconds": 0,
                "time": 1597766400000,
                "timezoneOffset": -480,
                "year": 120
            },
            "XK_DATE": "2025-08-18",
            "QF_MANAGER_NAME": "重庆市药品监督管理局",
            "BUSINESS_LICENSE_NUMBER": "91500113MA60DGXU8Y",
            "XC_DATE": "2020-08-19",
            "NUM_": 29
        },
        {
            "ID": "b12d5b4b48b048e99bf947350a4ed5e2",
            "EPS_NAME": "天津银曼家化科技有限公司",
            "PRODUCT_SN": "津妆20200004",
            "CITY_CODE": "414",
            "XK_COMPLETE_DATE": {
                "date": 17,
                "day": 1,
                "hours": 0,
                "minutes": 0,
                "month": 7,
                "nanos": 0,
                "seconds": 0,
                "time": 1597593600000,
                "timezoneOffset": -480,
                "year": 120
            },
            "XK_DATE": "2025-08-17",
            "QF_MANAGER_NAME": "天津市药品监督管理局",
            "BUSINESS_LICENSE_NUMBER": "91120113069895690G",
            "XC_DATE": "2020-08-17",
            "NUM_": 30
        }
    ],
    "orderBy": "createDate",
    "orderType": "desc",
    "pageCount": 355,
    "pageNumber": 2,
    "pageSize": 15,
    "property": "",
    "totalCount": 5316
}