{
    "filesize": "",
    "keyword": "",
    "list": [
        {
            "ID": "ff83aff95c5541cdab5ca6e847514f88",
            "EPS_NAME": "广东天姿化妆品科技有限公司",
            "PRODUCT_SN": "粤妆20200022",
            "CITY_CODE": null,
            "XK_COMPLETE_DATE": {
                "date": 17,
                "day": 1,
                "hours": 0,
                "minutes": 0,
                "month": 4,
                "nanos": 0,
                "seconds": 0,
                "time": 1621180800000,
                "timezoneOffset": -480,
                "year": 121
            },
            "XK_DATE": "2025-01-16",
            "QF_MANAGER_NAME": "广东省药品监督管理局",
            "BUSINESS_LICENSE_NUMBER": "91440101MA5CYUF0XX",
            "XC_DATE": "2021-05-17",
            "NUM_": 1
        },
        {
            "ID": "fe4f941d8ef44496aed52bbf57d41a76",
            "EPS_NAME": "中基惠诚科技有限公司",
            "PRODUCT_SN": "辽妆20200007",
            "CITY_CODE": "293",
            "XK_COMPLETE_DATE": {
                "date": 15,
                "day": 2,
                "hours": 0,
                "minutes": 0,
                "month": 8,
                "nanos": 0,
                "seconds": 0,
                "time": 1600099200000,
                "timezoneOffset": -480,
                "year": 120
            },
            "XK_DATE": "2025-09-15",
            "QF_MANAGER_NAME": "辽宁省药品监督管理局",
            "BUSINESS_LICENSE_NUMBER": "91210800MA105FJ16L",
            "XC_DATE": "2020-09-15",
            "NUM_": 2
        },
        {
            "ID": "cee79426bd77485696143868cbae86ae",
            "EPS_NAME": "西藏珂莱蒂生物科技开发有限公司",
            "PRODUCT_SN": "藏妆20200001",
            "CITY_CODE": "313",
            "XK_COMPLETE_DATE": {
                "date": 15,
                "day": 2,
                "hours": 0,
                "minutes": 0,
                "month": 8,
                "nanos": 0,
                "seconds": 0,
                "time": 1600099200000,
                "timezoneOffset": -480,
                "year": 120
            },
            "XK_DATE": "2025-09-14",
            "QF_MANAGER_NAME": "西藏自治区药品监督管理局",
            "BUSINESS_LICENSE_NUMBER": "91540194MA6TCDW76Y",
            "XC_DATE": "2020-09-15",
            "NUM_": 3
        },
        {
            "ID": "434dff0c9e55461bb7b0b47d1afcf336",
            "EPS_NAME": "黑龙江紫禁城生物科技有限公司",
            "PRODUCT_SN": "黑妆20200003",
            "CITY_CODE": "268",
            "XK_COMPLETE_DATE": {
                "date": 14,
                "day": 1,
                "hours": 0,
                "minutes": 0,
                "month": 8,
                "nanos": 0,
                "seconds": 0,
                "time": 1600012800000,
                "timezoneOffset": -480,
                "year": 120
            },
            "XK_DATE": "2025-09-14",
            "QF_MANAGER_NAME": "黑龙江省药品监督管理局",
            "BUSINESS_LICENSE_NUMBER": "91231083MA1C0L074D",
            "XC_DATE": "2020-09-14",
            "NUM_": 4
        },
        {
            "ID": "886695229d744e86ad16ad04e3557696",
            "EPS_NAME": "无锡市伙伴日化科技有限公司",
            "PRODUCT_SN": "苏妆20160085",
            "CITY_CODE": "82",
            "XK_COMPLETE_DATE": {
                "date": 11,
                "day": 5,
                "hours": 0,
                "minutes": 0,
                "month": 8,
                "nanos": 0,
                "seconds": 0,
                "time": 1599753600000,
                "timezoneOffset": -480,
                "year": 120
            },
            "XK_DATE": "2024-04-06",
            "QF_MANAGER_NAME": "江苏省药品监督管理局",
            "BUSINESS_LICENSE_NUMBER": "91320281142263113X",
            "XC_DATE": "2020-09-11",
            "NUM_": 5
        },
        {
            "ID": "a1e46361bb244bd38589127d43f6ecbc",
            "EPS_NAME": "江苏宝洁有限公司",
            "PRODUCT_SN": "苏妆20160037",
            "CITY_CODE": "84",
            "XK_COMPLETE_DATE": {
                "date": 11,
                "day": 5,
                "hours": 0,
                "minutes": 0,
                "month": 8,
                "nanos": 0,
                "seconds": 0,
                "time": 1599753600000,
                "timezoneOffset": -480,
                "year": 120
            },
            "XK_DATE": "2021-06-16",
            "QF_MANAGER_NAME": "江苏省药品监督管理局",
            "BUSINESS_LICENSE_NUMBER": "91320585560314411A",
            "XC_DATE": "2020-09-11",
            "NUM_": 6
        },
        {
            "ID": "5dc6dd3825d44aacbaec930d1880813b",
            "EPS_NAME": "皇封参（抚松）生物科技有限公司",
            "PRODUCT_SN": "吉妆20160012",
            "CITY_CODE": "277",
            "XK_COMPLETE_DATE": {
                "date": 10,
                "day": 4,
                "hours": 0,
                "minutes": 0,
                "month": 8,
                "nanos": 0,
                "seconds": 0,
                "time": 1599667200000,
                "timezoneOffset": -480,
                "year": 120
            },
            "XK_DATE": "2022-08-28",
            "QF_MANAGER_NAME": "吉林省药品监督管理局",
            "BUSINESS_LICENSE_NUMBER": "912206216773333170",
            "XC_DATE": "2020-09-10",
            "NUM_": 7
        },
        {
            "ID": "372e9307f1ea43479f6012591ddf693f",
            "EPS_NAME": "青蛙王子（福建）婴童护理用品有限公司",
            "PRODUCT_SN": "闽妆20180005",
            "CITY_CODE": "140",
            "XK_COMPLETE_DATE": {
                "date": 8,
                "day": 2,
                "hours": 0,
                "minutes": 0,
                "month": 8,
                "nanos": 0,
                "seconds": 0,
                "time": 1599494400000,
                "timezoneOffset": -480,
                "year": 120
            },
            "XK_DATE": "2023-04-15",
            "QF_MANAGER_NAME": "福建省药品监督管理局",
            "BUSINESS_LICENSE_NUMBER": "91350603MA2YM6P4X2",
            "XC_DATE": "2020-09-08",
            "NUM_": 8
        },
        {
            "ID": "a1ca5d79f6fe4a2282153fda486c2986",
            "EPS_NAME": "福建金亿文化用品有限公司",
            "PRODUCT_SN": "闽妆20170002",
            "CITY_CODE": "143",
            "XK_COMPLETE_DATE": {
                "date": 8,
                "day": 2,
                "hours": 0,
                "minutes": 0,
                "month": 8,
                "nanos": 0,
                "seconds": 0,
                "time": 1599494400000,
                "timezoneOffset": -480,
                "year": 120
            },
            "XK_DATE": "2022-01-05",
            "QF_MANAGER_NAME": "福建省药品监督管理局",
            "BUSINESS_LICENSE_NUMBER": "9135072459788424XQ",
            "XC_DATE": "2020-09-08",
            "NUM_": 9
        },
        {
            "ID": "b31ada9d4e08465a8e8f0d1e8adf0494",
            "EPS_NAME": "漳州水仙药业股份有限公司",
            "PRODUCT_SN": "闽妆20160014",
            "CITY_CODE": "140",
            "XK_COMPLETE_DATE": {
                "date": 8,
                "day": 2,
                "hours": 0,
                "minutes": 0,
                "month": 8,
                "nanos": 0,
                "seconds": 0,
                "time": 1599494400000,
                "timezoneOffset": -480,
                "year": 120
            },
            "XK_DATE": "2021-10-17",
            "QF_MANAGER_NAME": "福建省药品监督管理局",
            "BUSINESS_LICENSE_NUMBER": "91350600156521451Q",
            "XC_DATE": "2020-09-08",
            "NUM_": 10
        },
        {
            "ID": "e10f1ce6db3346b69901098b83879989",
            "EPS_NAME": "靖宇县芳雅人参系列化妆品有限公司",
            "PRODUCT_SN": "吉妆20180012",
            "CITY_CODE": "277",
            "XK_COMPLETE_DATE": {
                "date": 8,
                "day": 2,
                "hours": 0,
                "minutes": 0,
                "month": 8,
                "nanos": 0,
                "seconds": 0,
                "time": 1599494400000,
                "timezoneOffset": -480,
                "year": 120
            },
            "XK_DATE": "2023-11-14",
            "QF_MANAGER_NAME": "吉林省药品监督管理局",
            "BUSINESS_LICENSE_NUMBER": "9122062256507439XF",
            "XC_DATE": "2020-09-08",
            "NUM_": 11
        },
        {
            "ID": "2e18c9bf5f104197b604a5e02118713c",
            "EPS_NAME": "天津科丝美特生物科技有限公司",
            "PRODUCT_SN": "津妆20160059",
            "CITY_CODE": "412",
            "XK_COMPLETE_DATE": {
                "date": 7,
                "day": 1,
                "hours": 0,
                "minutes": 0,
                "month": 8,
                "nanos": 0,
                "seconds": 0,
                "time": 1599408000000,
                "timezoneOffset": -480,
                "year": 120
            },
            "XK_DATE": "2021-12-27",
            "QF_MANAGER_NAME": "天津市市场和质量监督管理委员会",
            "BUSINESS_LICENSE_NUMBER": "911201116974366636",
            "XC_DATE": "2020-09-07",
            "NUM_": 12
        },
        {
            "ID": "115684b06fc44f1aa53890f8404b194e",
            "EPS_NAME": "超力健(天津)化妆品有限公司",
            "PRODUCT_SN": "津妆20160035",
            "CITY_CODE": "413",
            "XK_COMPLETE_DATE": {
                "date": 7,
                "day": 1,
                "hours": 0,
                "minutes": 0,
                "month": 8,
                "nanos": 0,
                "seconds": 0,
                "time": 1599408000000,
                "timezoneOffset": -480,
                "year": 120
            },
            "XK_DATE": "2021-12-26",
            "QF_MANAGER_NAME": "天津市市场和质量监督管理委员会",
            "BUSINESS_LICENSE_NUMBER": "91120116722982253B",
            "XC_DATE": "2020-09-07",
            "NUM_": 13
        },
        {
            "ID": "981cd571fe9f488681565fc6e259fa8c",
            "EPS_NAME": "蒲公英（江苏）化妆品有限公司",
            "PRODUCT_SN": "苏妆20160181",
            "CITY_CODE": "92",
            "XK_COMPLETE_DATE": {
                "date": 2,
                "day": 3,
                "hours": 0,
                "minutes": 0,
                "month": 8,
                "nanos": 0,
                "seconds": 0,
                "time": 1598976000000,
                "timezoneOffset": -480,
                "year": 120
            },
            "XK_DATE": "2023-05-13",
            "QF_MANAGER_NAME": "江苏省药品监督管理局",
            "BUSINESS_LICENSE_NUMBER": "91321281142615078C",
            "XC_DATE": "2020-09-02",
            "NUM_": 14
        },
        {
            "ID": "6f69bee54a414180b9a152586392fb6b",
            "EPS_NAME": "安徽荷本生物科技有限公司",
            "PRODUCT_SN": "皖妆20190002",
            "CITY_CODE": "228",
            "XK_COMPLETE_DATE": {
                "date": 1,
                "day": 2,
                "hours": 0,
                "minutes": 0,
                "month": 8,
                "nanos": 0,
                "seconds": 0,
                "time": 1598889600000,
                "timezoneOffset": -480,
                "year": 120
            },
            "XK_DATE": "2024-01-14",
            "QF_MANAGER_NAME": "安徽省药品监督管理局",
            "BUSINESS_LICENSE_NUMBER": "91341222MA2RFJ324G",
            "XC_DATE": "2020-09-01",
            "NUM_": 15
        }
    ],
    "orderBy": "createDate",
    "orderType": "desc",
    "pageCount": 355,
    "pageNumber": 1,
    "pageSize": 15,
    "property": "",
    "totalCount": 5316
}