{
    "filesize": "",
    "keyword": "",
    "list": [
        {
            "ID": "e17cfceb4da84458ad2553e50cef2c23",
            "EPS_NAME": "广州宝生堂化妆品有限公司",
            "PRODUCT_SN": "粤妆20160836",
            "CITY_CODE": null,
            "XK_COMPLETE_DATE": {
                "date": 2,
                "day": 0,
                "hours": 0,
                "minutes": 0,
                "month": 7,
                "nanos": 0,
                "seconds": 0,
                "time": 1596297600000,
                "timezoneOffset": -480,
                "year": 120
            },
            "XK_DATE": "2021-09-28",
            "QF_MANAGER_NAME": "广东省药品监督管理局",
            "BUSINESS_LICENSE_NUMBER": "91440111726786313H",
            "XC_DATE": "2020-08-02",
            "NUM_": 91
        },
        {
            "ID": "e1969bfe77eb40dfb8886c5edb5643e0",
            "EPS_NAME": "广州大开化妆品有限公司",
            "PRODUCT_SN": "粤妆20160707",
            "CITY_CODE": null,
            "XK_COMPLETE_DATE": {
                "date": 2,
                "day": 0,
                "hours": 0,
                "minutes": 0,
                "month": 7,
                "nanos": 0,
                "seconds": 0,
                "time": 1596297600000,
                "timezoneOffset": -480,
                "year": 120
            },
            "XK_DATE": "2021-08-30",
            "QF_MANAGER_NAME": "广东省药品监督管理局",
            "BUSINESS_LICENSE_NUMBER": "91440111681344932W",
            "XC_DATE": "2020-08-02",
            "NUM_": 92
        },
        {
            "ID": "d693ea844c7c4225a30a7febbe4a4ccd",
            "EPS_NAME": "广州艾莉绮生物科技有限公司",
            "PRODUCT_SN": "粤妆20160253",
            "CITY_CODE": null,
            "XK_COMPLETE_DATE": {
                "date": 2,
                "day": 0,
                "hours": 0,
                "minutes": 0,
                "month": 7,
                "nanos": 0,
                "seconds": 0,
                "time": 1596297600000,
                "timezoneOffset": -480,
                "year": 120
            },
            "XK_DATE": "2024-04-08",
            "QF_MANAGER_NAME": "广东省药品监督管理局",
            "BUSINESS_LICENSE_NUMBER": "91440114304568527H",
            "XC_DATE": "2020-08-02",
            "NUM_": 93
        },
        {
            "ID": "8139e66b51c24b699a1b19c23be91ea5",
            "EPS_NAME": "广州美科医药生物科技有限公司",
            "PRODUCT_SN": "粤妆20160064",
            "CITY_CODE": null,
            "XK_COMPLETE_DATE": {
                "date": 2,
                "day": 0,
                "hours": 0,
                "minutes": 0,
                "month": 7,
                "nanos": 0,
                "seconds": 0,
                "time": 1596297600000,
                "timezoneOffset": -480,
                "year": 120
            },
            "XK_DATE": "2024-07-30",
            "QF_MANAGER_NAME": "广东省药品监督管理局",
            "BUSINESS_LICENSE_NUMBER": "91440111563964620G",
            "XC_DATE": "2020-08-02",
            "NUM_": 94
        },
        {
            "ID": "2677c6e47a61458a93f3f5105258f49c",
            "EPS_NAME": "佛山市金面子生物科技有限公司",
            "PRODUCT_SN": "粤妆20200135",
            "CITY_CODE": null,
            "XK_COMPLETE_DATE": {
                "date": 31,
                "day": 5,
                "hours": 0,
                "minutes": 0,
                "month": 6,
                "nanos": 0,
                "seconds": 0,
                "time": 1596124800000,
                "timezoneOffset": -480,
                "year": 120
            },
            "XK_DATE": "2025-07-30",
            "QF_MANAGER_NAME": "广东省药品监督管理局",
            "BUSINESS_LICENSE_NUMBER": "91440606MA54A6PK39",
            "XC_DATE": "2020-07-31",
            "NUM_": 95
        },
        {
            "ID": "0754b206db954368880ee2a5f69674bb",
            "EPS_NAME": "湖南源品细胞生物科技有限公司",
            "PRODUCT_SN": "湘妆20200006",
            "CITY_CODE": "190",
            "XK_COMPLETE_DATE": {
                "date": 31,
                "day": 5,
                "hours": 0,
                "minutes": 0,
                "month": 6,
                "nanos": 0,
                "seconds": 0,
                "time": 1596124800000,
                "timezoneOffset": -480,
                "year": 120
            },
            "XK_DATE": "2025-07-30",
            "QF_MANAGER_NAME": "湖南省药品监督管理局",
            "BUSINESS_LICENSE_NUMBER": "9143000034471666X5",
            "XC_DATE": "2020-07-31",
            "NUM_": 96
        },
        {
            "ID": "7519e2b2dbb34744b6b3dba7b8f8c8e7",
            "EPS_NAME": "扬州扬大联环药业基因工程有限公司",
            "PRODUCT_SN": "苏妆20160156",
            "CITY_CODE": "86",
            "XK_COMPLETE_DATE": {
                "date": 31,
                "day": 5,
                "hours": 0,
                "minutes": 0,
                "month": 6,
                "nanos": 0,
                "seconds": 0,
                "time": 1596124800000,
                "timezoneOffset": -480,
                "year": 120
            },
            "XK_DATE": "2021-12-22",
            "QF_MANAGER_NAME": "江苏省药品监督管理局",
            "BUSINESS_LICENSE_NUMBER": "913210917252172822",
            "XC_DATE": "2020-07-31",
            "NUM_": 97
        },
        {
            "ID": "b59a0684aeef4a7daea77246cc400253",
            "EPS_NAME": "苏州道富日化有限公司",
            "PRODUCT_SN": "苏妆20160143",
            "CITY_CODE": "84",
            "XK_COMPLETE_DATE": {
                "date": 31,
                "day": 5,
                "hours": 0,
                "minutes": 0,
                "month": 6,
                "nanos": 0,
                "seconds": 0,
                "time": 1596124800000,
                "timezoneOffset": -480,
                "year": 120
            },
            "XK_DATE": "2022-08-21",
            "QF_MANAGER_NAME": "江苏省药品监督管理局",
            "BUSINESS_LICENSE_NUMBER": "91320585782722074X",
            "XC_DATE": "2020-07-31",
            "NUM_": 98
        },
        {
            "ID": "e18cf262a2094054b529ec83acea4c9e",
            "EPS_NAME": "江苏姿泉日化有限公司",
            "PRODUCT_SN": "苏妆20160080",
            "CITY_CODE": "86",
            "XK_COMPLETE_DATE": {
                "date": 31,
                "day": 5,
                "hours": 0,
                "minutes": 0,
                "month": 6,
                "nanos": 0,
                "seconds": 0,
                "time": 1596124800000,
                "timezoneOffset": -480,
                "year": 120
            },
            "XK_DATE": "2021-09-12",
            "QF_MANAGER_NAME": "江苏省药品监督管理局",
            "BUSINESS_LICENSE_NUMBER": "91321091790891038M",
            "XC_DATE": "2020-07-31",
            "NUM_": 99
        },
        {
            "ID": "b3e8c2dac01745d990bdd72577584010",
            "EPS_NAME": "浙江百倍化妆品有限公司",
            "PRODUCT_SN": "浙妆20190024",
            "CITY_CODE": null,
            "XK_COMPLETE_DATE": {
                "date": 30,
                "day": 4,
                "hours": 0,
                "minutes": 0,
                "month": 6,
                "nanos": 0,
                "seconds": 0,
                "time": 1596038400000,
                "timezoneOffset": -480,
                "year": 120
            },
            "XK_DATE": "2024-06-18",
            "QF_MANAGER_NAME": "浙江省药品监督管理局",
            "BUSINESS_LICENSE_NUMBER": "91330782MA2E7AT548",
            "XC_DATE": "2020-07-30",
            "NUM_": 100
        },
        {
            "ID": "29c319fb7da84ac184ccd68def57fb62",
            "EPS_NAME": "无锡丝密斯科技有限公司",
            "PRODUCT_SN": "苏妆20160212",
            "CITY_CODE": "82",
            "XK_COMPLETE_DATE": {
                "date": 30,
                "day": 4,
                "hours": 0,
                "minutes": 0,
                "month": 6,
                "nanos": 0,
                "seconds": 0,
                "time": 1596038400000,
                "timezoneOffset": -480,
                "year": 120
            },
            "XK_DATE": "2021-12-27",
            "QF_MANAGER_NAME": "江苏省药品监督管理局",
            "BUSINESS_LICENSE_NUMBER": "913202147520273023",
            "XC_DATE": "2020-07-30",
            "NUM_": 101
        },
        {
            "ID": "d4ceb87edbe3403ea1f07648fa5b57e6",
            "EPS_NAME": "无锡可尚生物科技有限公司",
            "PRODUCT_SN": "苏妆20160110",
            "CITY_CODE": "82",
            "XK_COMPLETE_DATE": {
                "date": 30,
                "day": 4,
                "hours": 0,
                "minutes": 0,
                "month": 6,
                "nanos": 0,
                "seconds": 0,
                "time": 1596038400000,
                "timezoneOffset": -480,
                "year": 120
            },
            "XK_DATE": "2023-05-09",
            "QF_MANAGER_NAME": "江苏省药品监督管理局",
            "BUSINESS_LICENSE_NUMBER": "91320211690791400L",
            "XC_DATE": "2020-07-30",
            "NUM_": 102
        },
        {
            "ID": "8e211f606254410682c7d6887a9dfab0",
            "EPS_NAME": "广东奥宝斯化妆品有限公司",
            "PRODUCT_SN": "粤妆20200134",
            "CITY_CODE": null,
            "XK_COMPLETE_DATE": {
                "date": 29,
                "day": 3,
                "hours": 0,
                "minutes": 0,
                "month": 6,
                "nanos": 0,
                "seconds": 0,
                "time": 1595952000000,
                "timezoneOffset": -480,
                "year": 120
            },
            "XK_DATE": "2025-07-28",
            "QF_MANAGER_NAME": "广东省药品监督管理局",
            "BUSINESS_LICENSE_NUMBER": "91441881MA53R8Y20G",
            "XC_DATE": "2020-07-29",
            "NUM_": 103
        },
        {
            "ID": "420147d82a0a4d1397f81f953b4b0236",
            "EPS_NAME": "叶绿芝生物科技（中山）有限公司",
            "PRODUCT_SN": "粤妆20200132",
            "CITY_CODE": null,
            "XK_COMPLETE_DATE": {
                "date": 29,
                "day": 3,
                "hours": 0,
                "minutes": 0,
                "month": 6,
                "nanos": 0,
                "seconds": 0,
                "time": 1595952000000,
                "timezoneOffset": -480,
                "year": 120
            },
            "XK_DATE": "2025-07-28",
            "QF_MANAGER_NAME": "广东省药品监督管理局",
            "BUSINESS_LICENSE_NUMBER": "91442000MA51Q3D420",
            "XC_DATE": "2020-07-29",
            "NUM_": 104
        },
        {
            "ID": "781ff5e5d4034cb395f43a93b92f71b1",
            "EPS_NAME": "花西子（广东）化妆品有限公司",
            "PRODUCT_SN": "粤妆20200131",
            "CITY_CODE": null,
            "XK_COMPLETE_DATE": {
                "date": 29,
                "day": 3,
                "hours": 0,
                "minutes": 0,
                "month": 6,
                "nanos": 0,
                "seconds": 0,
                "time": 1595952000000,
                "timezoneOffset": -480,
                "year": 120
            },
            "XK_DATE": "2025-07-28",
            "QF_MANAGER_NAME": "广东省药品监督管理局",
            "BUSINESS_LICENSE_NUMBER": "91440513MA54PCTN16",
            "XC_DATE": "2020-07-29",
            "NUM_": 105
        }
    ],
    "orderBy": "createDate",
    "orderType": "desc",
    "pageCount": 355,
    "pageNumber": 7,
    "pageSize": 15,
    "property": "",
    "totalCount": 5316
}