{
    "filesize": "",
    "keyword": "",
    "list": [
        {
            "ID": "492cf8295afa461d8351acac495b32f2",
            "EPS_NAME": "广州市华采化妆品有限公司",
            "PRODUCT_SN": "粤妆20180068",
            "CITY_CODE": null,
            "XK_COMPLETE_DATE": {
                "date": 27,
                "day": 1,
                "hours": 0,
                "minutes": 0,
                "month": 6,
                "nanos": 0,
                "seconds": 0,
                "time": 1595779200000,
                "timezoneOffset": -480,
                "year": 120
            },
            "XK_DATE": "2023-02-11",
            "QF_MANAGER_NAME": "广东省药品监督管理局",
            "BUSINESS_LICENSE_NUMBER": "914401116986559800",
            "XC_DATE": "2020-07-27",
            "NUM_": 121
        },
        {
            "ID": "dc4df49446ee4160b6e622269558e5e1",
            "EPS_NAME": "广州奥思生物科技有限公司",
            "PRODUCT_SN": "粤妆20161654",
            "CITY_CODE": null,
            "XK_COMPLETE_DATE": {
                "date": 27,
                "day": 1,
                "hours": 0,
                "minutes": 0,
                "month": 6,
                "nanos": 0,
                "seconds": 0,
                "time": 1595779200000,
                "timezoneOffset": -480,
                "year": 120
            },
            "XK_DATE": "2021-12-19",
            "QF_MANAGER_NAME": "广东省药品监督管理局",
            "BUSINESS_LICENSE_NUMBER": "91440111MA59B3MG37",
            "XC_DATE": "2020-07-27",
            "NUM_": 122
        },
        {
            "ID": "cf0a3c57da60460e9002a7df48cc7819",
            "EPS_NAME": "广州市品智化妆品有限公司",
            "PRODUCT_SN": "粤妆20161097",
            "CITY_CODE": null,
            "XK_COMPLETE_DATE": {
                "date": 27,
                "day": 1,
                "hours": 0,
                "minutes": 0,
                "month": 6,
                "nanos": 0,
                "seconds": 0,
                "time": 1595779200000,
                "timezoneOffset": -480,
                "year": 120
            },
            "XK_DATE": "2021-11-09",
            "QF_MANAGER_NAME": "广东省药品监督管理局",
            "BUSINESS_LICENSE_NUMBER": "914401116969102397",
            "XC_DATE": "2020-07-27",
            "NUM_": 123
        },
        {
            "ID": "b081b89a5e0c4d12b690d9364a6f8d65",
            "EPS_NAME": "珠海源安化妆品有限公司",
            "PRODUCT_SN": "粤妆20160940",
            "CITY_CODE": null,
            "XK_COMPLETE_DATE": {
                "date": 27,
                "day": 1,
                "hours": 0,
                "minutes": 0,
                "month": 6,
                "nanos": 0,
                "seconds": 0,
                "time": 1595779200000,
                "timezoneOffset": -480,
                "year": 120
            },
            "XK_DATE": "2021-10-24",
            "QF_MANAGER_NAME": "广东省药品监督管理局",
            "BUSINESS_LICENSE_NUMBER": "914404005901238784",
            "XC_DATE": "2020-07-27",
            "NUM_": 124
        },
        {
            "ID": "5fa21c11d23849fbb60bdbae300f5dae",
            "EPS_NAME": "广州碧涛化妆品有限公司",
            "PRODUCT_SN": "粤妆20160750",
            "CITY_CODE": null,
            "XK_COMPLETE_DATE": {
                "date": 27,
                "day": 1,
                "hours": 0,
                "minutes": 0,
                "month": 6,
                "nanos": 0,
                "seconds": 0,
                "time": 1595779200000,
                "timezoneOffset": -480,
                "year": 120
            },
            "XK_DATE": "2021-09-18",
            "QF_MANAGER_NAME": "广东省药品监督管理局",
            "BUSINESS_LICENSE_NUMBER": "91440101729925585W",
            "XC_DATE": "2020-07-27",
            "NUM_": 125
        },
        {
            "ID": "cda73e1497724167972f839d06b5e17a",
            "EPS_NAME": "广州市比倩日用化妆品有限公司",
            "PRODUCT_SN": "粤妆20160247",
            "CITY_CODE": null,
            "XK_COMPLETE_DATE": {
                "date": 27,
                "day": 1,
                "hours": 0,
                "minutes": 0,
                "month": 6,
                "nanos": 0,
                "seconds": 0,
                "time": 1595779200000,
                "timezoneOffset": -480,
                "year": 120
            },
            "XK_DATE": "2023-06-06",
            "QF_MANAGER_NAME": "广东省药品监督管理局",
            "BUSINESS_LICENSE_NUMBER": "914401117243092658",
            "XC_DATE": "2020-07-27",
            "NUM_": 126
        },
        {
            "ID": "b6f36067f1af4b1ab3815c41c0b350bf",
            "EPS_NAME": "常州琉璃光生物科技有限公司",
            "PRODUCT_SN": "苏妆20200014",
            "CITY_CODE": "91",
            "XK_COMPLETE_DATE": {
                "date": 27,
                "day": 1,
                "hours": 0,
                "minutes": 0,
                "month": 6,
                "nanos": 0,
                "seconds": 0,
                "time": 1595779200000,
                "timezoneOffset": -480,
                "year": 120
            },
            "XK_DATE": "2025-07-26",
            "QF_MANAGER_NAME": "江苏省药品监督管理局",
            "BUSINESS_LICENSE_NUMBER": "91320402MA1RAAFC9E",
            "XC_DATE": "2020-07-27",
            "NUM_": 127
        },
        {
            "ID": "928c1bfe68cb479687b453092aea20cf",
            "EPS_NAME": "江苏煜博生物科技有限公司",
            "PRODUCT_SN": "苏妆20200013",
            "CITY_CODE": "88",
            "XK_COMPLETE_DATE": {
                "date": 27,
                "day": 1,
                "hours": 0,
                "minutes": 0,
                "month": 6,
                "nanos": 0,
                "seconds": 0,
                "time": 1595779200000,
                "timezoneOffset": -480,
                "year": 120
            },
            "XK_DATE": "2025-07-26",
            "QF_MANAGER_NAME": "江苏省药品监督管理局",
            "BUSINESS_LICENSE_NUMBER": "91320381MA1Y57D17A",
            "XC_DATE": "2020-07-27",
            "NUM_": 128
        },
        {
            "ID": "adee6784046444c0acda3ed1c1598a55",
            "EPS_NAME": "郑州市恒胜卫生用品有限公司",
            "PRODUCT_SN": "豫妆20200009",
            "CITY_CODE": "6",
            "XK_COMPLETE_DATE": {
                "date": 24,
                "day": 5,
                "hours": 0,
                "minutes": 0,
                "month": 6,
                "nanos": 0,
                "seconds": 0,
                "time": 1595520000000,
                "timezoneOffset": -480,
                "year": 120
            },
            "XK_DATE": "2025-07-23",
            "QF_MANAGER_NAME": "河南省药品监督管理局",
            "BUSINESS_LICENSE_NUMBER": "91410183MA3X8CYB59",
            "XC_DATE": "2020-07-24",
            "NUM_": 129
        },
        {
            "ID": "499b6aab39fe40a7af6c51dece2576bc",
            "EPS_NAME": "合肥贝壳派创新科技有限公司",
            "PRODUCT_SN": "皖妆20200004",
            "CITY_CODE": "221",
            "XK_COMPLETE_DATE": {
                "date": 24,
                "day": 5,
                "hours": 0,
                "minutes": 0,
                "month": 6,
                "nanos": 0,
                "seconds": 0,
                "time": 1595520000000,
                "timezoneOffset": -480,
                "year": 120
            },
            "XK_DATE": "2025-07-23",
            "QF_MANAGER_NAME": "安徽省药品监督管理局",
            "BUSINESS_LICENSE_NUMBER": "91340111MA2TLD2D62",
            "XC_DATE": "2020-07-24",
            "NUM_": 130
        },
        {
            "ID": "e120840ff5b94969bb4c8cf0ca4d5a02",
            "EPS_NAME": "凯诗伦(天津)生物技术有限公司",
            "PRODUCT_SN": "津妆20190005",
            "CITY_CODE": "415",
            "XK_COMPLETE_DATE": {
                "date": 24,
                "day": 5,
                "hours": 0,
                "minutes": 0,
                "month": 6,
                "nanos": 0,
                "seconds": 0,
                "time": 1595520000000,
                "timezoneOffset": -480,
                "year": 120
            },
            "XK_DATE": "2024-08-15",
            "QF_MANAGER_NAME": "天津市药品监督管理局",
            "BUSINESS_LICENSE_NUMBER": "91120222MA06EGEA3E",
            "XC_DATE": "2020-07-24",
            "NUM_": 131
        },
        {
            "ID": "1c6059c2b7974ff8965e4f8b882ffe49",
            "EPS_NAME": "东阳市珂瑞菲儿化妆品有限公司",
            "PRODUCT_SN": "浙妆20200026",
            "CITY_CODE": null,
            "XK_COMPLETE_DATE": {
                "date": 23,
                "day": 4,
                "hours": 0,
                "minutes": 0,
                "month": 6,
                "nanos": 0,
                "seconds": 0,
                "time": 1595433600000,
                "timezoneOffset": -480,
                "year": 120
            },
            "XK_DATE": "2025-07-22",
            "QF_MANAGER_NAME": "浙江省药品监督管理局",
            "BUSINESS_LICENSE_NUMBER": "91330783MA2EDEPYX8",
            "XC_DATE": "2020-07-23",
            "NUM_": 132
        },
        {
            "ID": "84e3f854bac74fdcba45897dd45b2149",
            "EPS_NAME": "浦江县雅添化妆品有限公司",
            "PRODUCT_SN": "浙妆20190016",
            "CITY_CODE": null,
            "XK_COMPLETE_DATE": {
                "date": 23,
                "day": 4,
                "hours": 0,
                "minutes": 0,
                "month": 6,
                "nanos": 0,
                "seconds": 0,
                "time": 1595433600000,
                "timezoneOffset": -480,
                "year": 120
            },
            "XK_DATE": "2024-05-20",
            "QF_MANAGER_NAME": "浙江省药品监督管理局",
            "BUSINESS_LICENSE_NUMBER": "91330726MA2E6GDN04",
            "XC_DATE": "2020-07-23",
            "NUM_": 133
        },
        {
            "ID": "0c6a844c94374911a417bf15dbd89180",
            "EPS_NAME": "济宁恒康生物医药有限公司",
            "PRODUCT_SN": "鲁妆20200015",
            "CITY_CODE": null,
            "XK_COMPLETE_DATE": {
                "date": 23,
                "day": 4,
                "hours": 0,
                "minutes": 0,
                "month": 6,
                "nanos": 0,
                "seconds": 0,
                "time": 1595433600000,
                "timezoneOffset": -480,
                "year": 120
            },
            "XK_DATE": "2025-07-22",
            "QF_MANAGER_NAME": "山东省食品药品监督管理局",
            "BUSINESS_LICENSE_NUMBER": "9137082977417811XQ",
            "XC_DATE": "2020-07-23",
            "NUM_": 134
        },
        {
            "ID": "3891fc54ce664505989b23adb9ba2a5c",
            "EPS_NAME": "临沂圣骐日化有限公司",
            "PRODUCT_SN": "鲁妆20170011",
            "CITY_CODE": null,
            "XK_COMPLETE_DATE": {
                "date": 23,
                "day": 4,
                "hours": 0,
                "minutes": 0,
                "month": 6,
                "nanos": 0,
                "seconds": 0,
                "time": 1595433600000,
                "timezoneOffset": -480,
                "year": 120
            },
            "XK_DATE": "2022-01-19",
            "QF_MANAGER_NAME": "山东省食品药品监督管理局",
            "BUSINESS_LICENSE_NUMBER": "371302228022894",
            "XC_DATE": "2020-07-23",
            "NUM_": 135
        }
    ],
    "orderBy": "createDate",
    "orderType": "desc",
    "pageCount": 355,
    "pageNumber": 9,
    "pageSize": 15,
    "property": "",
    "totalCount": 5316
}