{
    "filesize": "",
    "keyword": "",
    "list": [
        {
            "ID": "4acdd31f311344a9bfebea3c862c5478",
            "EPS_NAME": "广州尚薇化妆品有限公司",
            "PRODUCT_SN": "粤妆20160673",
            "CITY_CODE": null,
            "XK_COMPLETE_DATE": {
                "date": 4,
                "day": 2,
                "hours": 0,
                "minutes": 0,
                "month": 7,
                "nanos": 0,
                "seconds": 0,
                "time": 1596470400000,
                "timezoneOffset": -480,
                "year": 120
            },
            "XK_DATE": "2021-08-29",
            "QF_MANAGER_NAME": "广东省药品监督管理局",
            "BUSINESS_LICENSE_NUMBER": "91440101714290492X",
            "XC_DATE": "2020-08-04",
            "NUM_": 76
        },
        {
            "ID": "412707c83e464b01a90298a265463f60",
            "EPS_NAME": "广州美续化妆品有限公司",
            "PRODUCT_SN": "粤妆20160299",
            "CITY_CODE": null,
            "XK_COMPLETE_DATE": {
                "date": 4,
                "day": 2,
                "hours": 0,
                "minutes": 0,
                "month": 7,
                "nanos": 0,
                "seconds": 0,
                "time": 1596470400000,
                "timezoneOffset": -480,
                "year": 120
            },
            "XK_DATE": "2023-07-26",
            "QF_MANAGER_NAME": "广东省药品监督管理局",
            "BUSINESS_LICENSE_NUMBER": "91440111304664076H",
            "XC_DATE": "2020-08-04",
            "NUM_": 77
        },
        {
            "ID": "219320a76d694fb5ab3387430dad4fef",
            "EPS_NAME": "苏州宝丽洁日化有限公司",
            "PRODUCT_SN": "苏妆20160205",
            "CITY_CODE": "84",
            "XK_COMPLETE_DATE": {
                "date": 4,
                "day": 2,
                "hours": 0,
                "minutes": 0,
                "month": 7,
                "nanos": 0,
                "seconds": 0,
                "time": 1596470400000,
                "timezoneOffset": -480,
                "year": 120
            },
            "XK_DATE": "2021-12-27",
            "QF_MANAGER_NAME": "江苏省药品监督管理局",
            "BUSINESS_LICENSE_NUMBER": "913205067573203138",
            "XC_DATE": "2020-08-04",
            "NUM_": 78
        },
        {
            "ID": "98c4006cb4ae48a98661261b692c6c2d",
            "EPS_NAME": "深圳市璐琥进出口有限公司",
            "PRODUCT_SN": "粤妆20200139",
            "CITY_CODE": null,
            "XK_COMPLETE_DATE": {
                "date": 3,
                "day": 1,
                "hours": 0,
                "minutes": 0,
                "month": 7,
                "nanos": 0,
                "seconds": 0,
                "time": 1596384000000,
                "timezoneOffset": -480,
                "year": 120
            },
            "XK_DATE": "2025-08-02",
            "QF_MANAGER_NAME": "广东省药品监督管理局",
            "BUSINESS_LICENSE_NUMBER": "91440300MA5DQCMR3W",
            "XC_DATE": "2020-08-03",
            "NUM_": 79
        },
        {
            "ID": "63ea7e6c2aff46688b1353d3e4681233",
            "EPS_NAME": "广州环亚药业有限公司",
            "PRODUCT_SN": "粤妆20200138",
            "CITY_CODE": null,
            "XK_COMPLETE_DATE": {
                "date": 3,
                "day": 1,
                "hours": 0,
                "minutes": 0,
                "month": 7,
                "nanos": 0,
                "seconds": 0,
                "time": 1596384000000,
                "timezoneOffset": -480,
                "year": 120
            },
            "XK_DATE": "2025-08-02",
            "QF_MANAGER_NAME": "广东省药品监督管理局",
            "BUSINESS_LICENSE_NUMBER": "91440101MA5D3G0B85",
            "XC_DATE": "2020-08-03",
            "NUM_": 80
        },
        {
            "ID": "c392da9282a54073afd38fa55a7883ac",
            "EPS_NAME": "深圳新发源植物科技发展有限公司",
            "PRODUCT_SN": "粤妆20170484",
            "CITY_CODE": null,
            "XK_COMPLETE_DATE": {
                "date": 3,
                "day": 1,
                "hours": 0,
                "minutes": 0,
                "month": 7,
                "nanos": 0,
                "seconds": 0,
                "time": 1596384000000,
                "timezoneOffset": -480,
                "year": 120
            },
            "XK_DATE": "2022-08-31",
            "QF_MANAGER_NAME": "广东省药品监督管理局",
            "BUSINESS_LICENSE_NUMBER": "91440300MA5DCEB368",
            "XC_DATE": "2020-08-03",
            "NUM_": 81
        },
        {
            "ID": "55f95f1750c0432eb53d1628867068c5",
            "EPS_NAME": "广州黄万应堂健康产业有限公司",
            "PRODUCT_SN": "粤妆20170341",
            "CITY_CODE": null,
            "XK_COMPLETE_DATE": {
                "date": 3,
                "day": 1,
                "hours": 0,
                "minutes": 0,
                "month": 7,
                "nanos": 0,
                "seconds": 0,
                "time": 1596384000000,
                "timezoneOffset": -480,
                "year": 120
            },
            "XK_DATE": "2022-03-23",
            "QF_MANAGER_NAME": "广东省药品监督管理局",
            "BUSINESS_LICENSE_NUMBER": "91440111304646863K",
            "XC_DATE": "2020-08-03",
            "NUM_": 82
        },
        {
            "ID": "082ae6c45b5b4c49863a116fc3d19eb2",
            "EPS_NAME": "广州美亚化妆品有限公司",
            "PRODUCT_SN": "粤妆20160681",
            "CITY_CODE": null,
            "XK_COMPLETE_DATE": {
                "date": 3,
                "day": 1,
                "hours": 0,
                "minutes": 0,
                "month": 7,
                "nanos": 0,
                "seconds": 0,
                "time": 1596384000000,
                "timezoneOffset": -480,
                "year": 120
            },
            "XK_DATE": "2025-08-02",
            "QF_MANAGER_NAME": "广东省药品监督管理局",
            "BUSINESS_LICENSE_NUMBER": "91440111560231480R",
            "XC_DATE": "2020-08-03",
            "NUM_": 83
        },
        {
            "ID": "38d7f821f7544061b956f785c29e41e7",
            "EPS_NAME": "山东仙婷生物科技有限公司",
            "PRODUCT_SN": "鲁妆20170057",
            "CITY_CODE": null,
            "XK_COMPLETE_DATE": {
                "date": 3,
                "day": 1,
                "hours": 0,
                "minutes": 0,
                "month": 7,
                "nanos": 0,
                "seconds": 0,
                "time": 1596384000000,
                "timezoneOffset": -480,
                "year": 120
            },
            "XK_DATE": "2022-12-21",
            "QF_MANAGER_NAME": "山东省食品药品监督管理局",
            "BUSINESS_LICENSE_NUMBER": "91370902089750309X",
            "XC_DATE": "2020-08-03",
            "NUM_": 84
        },
        {
            "ID": "6e3395bfd3b24edd9aed4fb66abf5247",
            "EPS_NAME": "广州蕾妮安娜生物科技有限公司",
            "PRODUCT_SN": "粤妆20200137",
            "CITY_CODE": null,
            "XK_COMPLETE_DATE": {
                "date": 2,
                "day": 0,
                "hours": 0,
                "minutes": 0,
                "month": 7,
                "nanos": 0,
                "seconds": 0,
                "time": 1596297600000,
                "timezoneOffset": -480,
                "year": 120
            },
            "XK_DATE": "2025-08-01",
            "QF_MANAGER_NAME": "广东省药品监督管理局",
            "BUSINESS_LICENSE_NUMBER": "91440101MA5CX9FK0X",
            "XC_DATE": "2020-08-02",
            "NUM_": 85
        },
        {
            "ID": "8cd16c6d3a374e53a5126084124e11bf",
            "EPS_NAME": "广州成美化妆品有限公司",
            "PRODUCT_SN": "粤妆20200136",
            "CITY_CODE": null,
            "XK_COMPLETE_DATE": {
                "date": 2,
                "day": 0,
                "hours": 0,
                "minutes": 0,
                "month": 7,
                "nanos": 0,
                "seconds": 0,
                "time": 1596297600000,
                "timezoneOffset": -480,
                "year": 120
            },
            "XK_DATE": "2025-08-01",
            "QF_MANAGER_NAME": "广东省药品监督管理局",
            "BUSINESS_LICENSE_NUMBER": "91440101MA5D56ED7T",
            "XC_DATE": "2020-08-02",
            "NUM_": 86
        },
        {
            "ID": "580ec24f0fd6430bb0a084e2f9215150",
            "EPS_NAME": "广州欧丽雅生物科技有限公司",
            "PRODUCT_SN": "粤妆20190191",
            "CITY_CODE": null,
            "XK_COMPLETE_DATE": {
                "date": 2,
                "day": 0,
                "hours": 0,
                "minutes": 0,
                "month": 7,
                "nanos": 0,
                "seconds": 0,
                "time": 1596297600000,
                "timezoneOffset": -480,
                "year": 120
            },
            "XK_DATE": "2024-09-11",
            "QF_MANAGER_NAME": "广东省药品监督管理局",
            "BUSINESS_LICENSE_NUMBER": "91440101MA5CR7A744",
            "XC_DATE": "2020-08-02",
            "NUM_": 87
        },
        {
            "ID": "0d198cfefa274a1d83458da01dcb8d7a",
            "EPS_NAME": "广州市依格美日用化妆品有限公司",
            "PRODUCT_SN": "粤妆20170278",
            "CITY_CODE": null,
            "XK_COMPLETE_DATE": {
                "date": 2,
                "day": 0,
                "hours": 0,
                "minutes": 0,
                "month": 7,
                "nanos": 0,
                "seconds": 0,
                "time": 1596297600000,
                "timezoneOffset": -480,
                "year": 120
            },
            "XK_DATE": "2022-02-16",
            "QF_MANAGER_NAME": "广东省药品监督管理局",
            "BUSINESS_LICENSE_NUMBER": "91440111070156350B",
            "XC_DATE": "2020-08-02",
            "NUM_": 88
        },
        {
            "ID": "a5f0024bbb19437aa8263eabec04a6e4",
            "EPS_NAME": "广州市影星化妆品有限公司",
            "PRODUCT_SN": "粤妆20161406",
            "CITY_CODE": null,
            "XK_COMPLETE_DATE": {
                "date": 2,
                "day": 0,
                "hours": 0,
                "minutes": 0,
                "month": 7,
                "nanos": 0,
                "seconds": 0,
                "time": 1596297600000,
                "timezoneOffset": -480,
                "year": 120
            },
            "XK_DATE": "2021-11-29",
            "QF_MANAGER_NAME": "广东省药品监督管理局",
            "BUSINESS_LICENSE_NUMBER": "91440111797376469H",
            "XC_DATE": "2020-08-02",
            "NUM_": 89
        },
        {
            "ID": "24d39c879d6048b2bb9eb0cbbd09b45d",
            "EPS_NAME": "广州市胜蔻化妆品有限公司",
            "PRODUCT_SN": "粤妆20161080",
            "CITY_CODE": null,
            "XK_COMPLETE_DATE": {
                "date": 2,
                "day": 0,
                "hours": 0,
                "minutes": 0,
                "month": 7,
                "nanos": 0,
                "seconds": 0,
                "time": 1596297600000,
                "timezoneOffset": -480,
                "year": 120
            },
            "XK_DATE": "2021-11-08",
            "QF_MANAGER_NAME": "广东省药品监督管理局",
            "BUSINESS_LICENSE_NUMBER": "91440111080393907E",
            "XC_DATE": "2020-08-02",
            "NUM_": 90
        }
    ],
    "orderBy": "createDate",
    "orderType": "desc",
    "pageCount": 355,
    "pageNumber": 6,
    "pageSize": 15,
    "property": "",
    "totalCount": 5316
}