{
    "filesize": "",
    "keyword": "",
    "list": [
        {
            "ID": "3265a3cdab884c85a6710006f4277b35",
            "EPS_NAME": "天津市圣奥化妆品有限公司",
            "PRODUCT_SN": "津妆20160043",
            "CITY_CODE": "415",
            "XK_COMPLETE_DATE": {
                "date": 17,
                "day": 1,
                "hours": 0,
                "minutes": 0,
                "month": 7,
                "nanos": 0,
                "seconds": 0,
                "time": 1597593600000,
                "timezoneOffset": -480,
                "year": 120
            },
            "XK_DATE": "2021-12-26",
            "QF_MANAGER_NAME": "天津市药品监督管理局",
            "BUSINESS_LICENSE_NUMBER": "91120111722986916W",
            "XC_DATE": "2020-08-17",
            "NUM_": 31
        },
        {
            "ID": "d1dd27c464db4ccd81de1235c07e3835",
            "EPS_NAME": "天津郁美净集团有限公司",
            "PRODUCT_SN": "津妆20160003",
            "CITY_CODE": "408",
            "XK_COMPLETE_DATE": {
                "date": 17,
                "day": 1,
                "hours": 0,
                "minutes": 0,
                "month": 7,
                "nanos": 0,
                "seconds": 0,
                "time": 1597593600000,
                "timezoneOffset": -480,
                "year": 120
            },
            "XK_DATE": "2021-06-26",
            "QF_MANAGER_NAME": "天津市药品监督管理局",
            "BUSINESS_LICENSE_NUMBER": "91120104103388394M",
            "XC_DATE": "2020-08-17",
            "NUM_": 32
        },
        {
            "ID": "d5046c860bbb4e5198fa0dd99382b262",
            "EPS_NAME": "天津盛世永业科技发展有限公司",
            "PRODUCT_SN": "津妆20160001",
            "CITY_CODE": "419",
            "XK_COMPLETE_DATE": {
                "date": 17,
                "day": 1,
                "hours": 0,
                "minutes": 0,
                "month": 7,
                "nanos": 0,
                "seconds": 0,
                "time": 1597593600000,
                "timezoneOffset": -480,
                "year": 120
            },
            "XK_DATE": "2021-03-11",
            "QF_MANAGER_NAME": "天津市药品监督管理局",
            "BUSINESS_LICENSE_NUMBER": "91120223668831162E",
            "XC_DATE": "2020-08-17",
            "NUM_": 33
        },
        {
            "ID": "8ff85cc8b1234cc4b68b8ac835ffa2fc",
            "EPS_NAME": "广东画景医药生物科技有限公司",
            "PRODUCT_SN": "粤妆20200153",
            "CITY_CODE": null,
            "XK_COMPLETE_DATE": {
                "date": 14,
                "day": 5,
                "hours": 0,
                "minutes": 0,
                "month": 7,
                "nanos": 0,
                "seconds": 0,
                "time": 1597334400000,
                "timezoneOffset": -480,
                "year": 120
            },
            "XK_DATE": "2025-08-13",
            "QF_MANAGER_NAME": "广东省药品监督管理局",
            "BUSINESS_LICENSE_NUMBER": "91440605MA549UJ52W",
            "XC_DATE": "2020-08-14",
            "NUM_": 34
        },
        {
            "ID": "6446c70796074d20a30a2386de162233",
            "EPS_NAME": "南宁生源中药饮片有限责任公司",
            "PRODUCT_SN": "桂妆20200004",
            "CITY_CODE": "237",
            "XK_COMPLETE_DATE": {
                "date": 14,
                "day": 5,
                "hours": 0,
                "minutes": 0,
                "month": 7,
                "nanos": 0,
                "seconds": 0,
                "time": 1597334400000,
                "timezoneOffset": -480,
                "year": 120
            },
            "XK_DATE": "2025-06-10",
            "QF_MANAGER_NAME": "广西壮族自治区药品监督管理局",
            "BUSINESS_LICENSE_NUMBER": "91450103711425363R",
            "XC_DATE": "2020-08-14",
            "NUM_": 35
        },
        {
            "ID": "bb87bb6799d146c7a034f0658725b8aa",
            "EPS_NAME": "普宁市旭宝化妆品有限公司",
            "PRODUCT_SN": "粤妆20200151",
            "CITY_CODE": null,
            "XK_COMPLETE_DATE": {
                "date": 13,
                "day": 4,
                "hours": 0,
                "minutes": 0,
                "month": 7,
                "nanos": 0,
                "seconds": 0,
                "time": 1597248000000,
                "timezoneOffset": -480,
                "year": 120
            },
            "XK_DATE": "2025-08-12",
            "QF_MANAGER_NAME": "广东省药品监督管理局",
            "BUSINESS_LICENSE_NUMBER": "91445281MA53TAK36E",
            "XC_DATE": "2020-08-13",
            "NUM_": 36
        },
        {
            "ID": "5f3bc27a7e20446f89e50b5e31b388a8",
            "EPS_NAME": "汭蓝医疗科技（长春）有限公司",
            "PRODUCT_SN": "吉妆20200003",
            "CITY_CODE": "275",
            "XK_COMPLETE_DATE": {
                "date": 13,
                "day": 4,
                "hours": 0,
                "minutes": 0,
                "month": 7,
                "nanos": 0,
                "seconds": 0,
                "time": 1597248000000,
                "timezoneOffset": -480,
                "year": 120
            },
            "XK_DATE": "2025-04-29",
            "QF_MANAGER_NAME": "吉林省药品监督管理局",
            "BUSINESS_LICENSE_NUMBER": "91220107MA1731KQ4E",
            "XC_DATE": "2020-08-13",
            "NUM_": 37
        },
        {
            "ID": "53e2bc6ba85b4ab5a35215cbcdec7933",
            "EPS_NAME": "大理白族自治州中药制药有限公司",
            "PRODUCT_SN": "云妆20160028",
            "CITY_CODE": "213",
            "XK_COMPLETE_DATE": {
                "date": 12,
                "day": 3,
                "hours": 0,
                "minutes": 0,
                "month": 7,
                "nanos": 0,
                "seconds": 0,
                "time": 1597161600000,
                "timezoneOffset": -480,
                "year": 120
            },
            "XK_DATE": "2021-12-20",
            "QF_MANAGER_NAME": "云南省药品监督管理局",
            "BUSINESS_LICENSE_NUMBER": "915329272188006415",
            "XC_DATE": "2020-08-12",
            "NUM_": 38
        },
        {
            "ID": "19d680f65b2f4ac49dce22c83058548d",
            "EPS_NAME": "奥珀莱健康产业科技（广州）有限公司",
            "PRODUCT_SN": "粤妆20200150",
            "CITY_CODE": null,
            "XK_COMPLETE_DATE": {
                "date": 12,
                "day": 3,
                "hours": 0,
                "minutes": 0,
                "month": 7,
                "nanos": 0,
                "seconds": 0,
                "time": 1597161600000,
                "timezoneOffset": -480,
                "year": 120
            },
            "XK_DATE": "2025-08-11",
            "QF_MANAGER_NAME": "广东省药品监督管理局",
            "BUSINESS_LICENSE_NUMBER": "91440101MA5D4D785J",
            "XC_DATE": "2020-08-12",
            "NUM_": 39
        },
        {
            "ID": "7dcb5a9a185c4905a45d7994c393e040",
            "EPS_NAME": "广州迪娅蔻斯生物科技有限公司",
            "PRODUCT_SN": "粤妆20200149",
            "CITY_CODE": null,
            "XK_COMPLETE_DATE": {
                "date": 12,
                "day": 3,
                "hours": 0,
                "minutes": 0,
                "month": 7,
                "nanos": 0,
                "seconds": 0,
                "time": 1597161600000,
                "timezoneOffset": -480,
                "year": 120
            },
            "XK_DATE": "2025-08-11",
            "QF_MANAGER_NAME": "广东省药品监督管理局",
            "BUSINESS_LICENSE_NUMBER": "91440101MA5D7T3L6G",
            "XC_DATE": "2020-08-12",
            "NUM_": 40
        },
        {
            "ID": "fb18d525651442ce87773f41b8026c8b",
            "EPS_NAME": "广州倩蔻化妆品有限公司",
            "PRODUCT_SN": "粤妆20200148",
            "CITY_CODE": null,
            "XK_COMPLETE_DATE": {
                "date": 12,
                "day": 3,
                "hours": 0,
                "minutes": 0,
                "month": 7,
                "nanos": 0,
                "seconds": 0,
                "time": 1597161600000,
                "timezoneOffset": -480,
                "year": 120
            },
            "XK_DATE": "2025-08-11",
            "QF_MANAGER_NAME": "广东省药品监督管理局",
            "BUSINESS_LICENSE_NUMBER": "91440101MA9UP1XMXG",
            "XC_DATE": "2020-08-12",
            "NUM_": 41
        },
        {
            "ID": "47ab9757dfb045a19367c58f31dc2396",
            "EPS_NAME": "佛山天屹化妆品有限公司",
            "PRODUCT_SN": "粤妆20200147",
            "CITY_CODE": null,
            "XK_COMPLETE_DATE": {
                "date": 12,
                "day": 3,
                "hours": 0,
                "minutes": 0,
                "month": 7,
                "nanos": 0,
                "seconds": 0,
                "time": 1597161600000,
                "timezoneOffset": -480,
                "year": 120
            },
            "XK_DATE": "2025-08-11",
            "QF_MANAGER_NAME": "广东省药品监督管理局",
            "BUSINESS_LICENSE_NUMBER": "91440605MA53F6ER7E",
            "XC_DATE": "2020-08-12",
            "NUM_": 42
        },
        {
            "ID": "c21eb64c39ed4885856625031afd0d63",
            "EPS_NAME": "广东欧德薇儿生物科技有限公司",
            "PRODUCT_SN": "粤妆20200146",
            "CITY_CODE": null,
            "XK_COMPLETE_DATE": {
                "date": 12,
                "day": 3,
                "hours": 0,
                "minutes": 0,
                "month": 7,
                "nanos": 0,
                "seconds": 0,
                "time": 1597161600000,
                "timezoneOffset": -480,
                "year": 120
            },
            "XK_DATE": "2025-08-11",
            "QF_MANAGER_NAME": "广东省药品监督管理局",
            "BUSINESS_LICENSE_NUMBER": "91440605MA54MFKQ06",
            "XC_DATE": "2020-08-12",
            "NUM_": 43
        },
        {
            "ID": "af07ce5703ca49e3b22e891a4a61eca4",
            "EPS_NAME": "广东鸿懿药业科技有限公司",
            "PRODUCT_SN": "粤妆20190251",
            "CITY_CODE": null,
            "XK_COMPLETE_DATE": {
                "date": 12,
                "day": 3,
                "hours": 0,
                "minutes": 0,
                "month": 7,
                "nanos": 0,
                "seconds": 0,
                "time": 1597161600000,
                "timezoneOffset": -480,
                "year": 120
            },
            "XK_DATE": "2024-11-12",
            "QF_MANAGER_NAME": "广东省药品监督管理局",
            "BUSINESS_LICENSE_NUMBER": "91440608MA53C2JE5T",
            "XC_DATE": "2020-08-12",
            "NUM_": 44
        },
        {
            "ID": "3a548f0ed219480596e676528551c6f7",
            "EPS_NAME": "广州宾宇生物科技有限公司",
            "PRODUCT_SN": "粤妆20190094",
            "CITY_CODE": null,
            "XK_COMPLETE_DATE": {
                "date": 12,
                "day": 3,
                "hours": 0,
                "minutes": 0,
                "month": 7,
                "nanos": 0,
                "seconds": 0,
                "time": 1597161600000,
                "timezoneOffset": -480,
                "year": 120
            },
            "XK_DATE": "2024-05-07",
            "QF_MANAGER_NAME": "广东省药品监督管理局",
            "BUSINESS_LICENSE_NUMBER": "91440101MA5CJWMR96",
            "XC_DATE": "2020-08-12",
            "NUM_": 45
        }
    ],
    "orderBy": "createDate",
    "orderType": "desc",
    "pageCount": 355,
    "pageNumber": 3,
    "pageSize": 15,
    "property": "",
    "totalCount": 5316
}