{
    "filesize": "",
    "keyword": "",
    "list": [
        {
            "ID": "a1b844ce23d34078b897840f19a75a86",
            "EPS_NAME": "广州思薇伦特美容生物科技有限公司",
            "PRODUCT_SN": "粤妆20180187",
            "CITY_CODE": null,
            "XK_COMPLETE_DATE": {
                "date": 12,
                "day": 3,
                "hours": 0,
                "minutes": 0,
                "month": 7,
                "nanos": 0,
                "seconds": 0,
                "time": 1597161600000,
                "timezoneOffset": -480,
                "year": 120
            },
            "XK_DATE": "2023-08-30",
            "QF_MANAGER_NAME": "广东省药品监督管理局",
            "BUSINESS_LICENSE_NUMBER": "91440101585689869Q",
            "XC_DATE": "2020-08-12",
            "NUM_": 46
        },
        {
            "ID": "8b573fc6b1214ef19b4cb7f9cabf2824",
            "EPS_NAME": "台州市华美日化有限公司",
            "PRODUCT_SN": "浙妆20160359",
            "CITY_CODE": null,
            "XK_COMPLETE_DATE": {
                "date": 11,
                "day": 2,
                "hours": 0,
                "minutes": 0,
                "month": 7,
                "nanos": 0,
                "seconds": 0,
                "time": 1597075200000,
                "timezoneOffset": -480,
                "year": 120
            },
            "XK_DATE": "2021-12-29",
            "QF_MANAGER_NAME": "浙江省药品监督管理局",
            "BUSINESS_LICENSE_NUMBER": "91331002610041977R",
            "XC_DATE": "2020-08-11",
            "NUM_": 47
        },
        {
            "ID": "3490572e2e9b409cb29db60518c8fa49",
            "EPS_NAME": "珠海珍妮采化妆品有限公司",
            "PRODUCT_SN": "粤妆20161419",
            "CITY_CODE": null,
            "XK_COMPLETE_DATE": {
                "date": 11,
                "day": 2,
                "hours": 0,
                "minutes": 0,
                "month": 7,
                "nanos": 0,
                "seconds": 0,
                "time": 1597075200000,
                "timezoneOffset": -480,
                "year": 120
            },
            "XK_DATE": "2023-08-26",
            "QF_MANAGER_NAME": "广东省药品监督管理局",
            "BUSINESS_LICENSE_NUMBER": "91440400792968588Y",
            "XC_DATE": "2020-08-11",
            "NUM_": 48
        },
        {
            "ID": "e7542b36df6f4ca582886b2a36b39890",
            "EPS_NAME": "广东利盈医药科技有限公司",
            "PRODUCT_SN": "粤妆20200145",
            "CITY_CODE": null,
            "XK_COMPLETE_DATE": {
                "date": 10,
                "day": 1,
                "hours": 0,
                "minutes": 0,
                "month": 7,
                "nanos": 0,
                "seconds": 0,
                "time": 1596988800000,
                "timezoneOffset": -480,
                "year": 120
            },
            "XK_DATE": "2025-08-09",
            "QF_MANAGER_NAME": "广东省药品监督管理局",
            "BUSINESS_LICENSE_NUMBER": "91440101MA9UKM0W1X",
            "XC_DATE": "2020-08-10",
            "NUM_": 49
        },
        {
            "ID": "f8d3661c6ecf456b939908700436259c",
            "EPS_NAME": "广州国妆生物科技有限公司",
            "PRODUCT_SN": "粤妆20200120",
            "CITY_CODE": null,
            "XK_COMPLETE_DATE": {
                "date": 10,
                "day": 1,
                "hours": 0,
                "minutes": 0,
                "month": 7,
                "nanos": 0,
                "seconds": 0,
                "time": 1596988800000,
                "timezoneOffset": -480,
                "year": 120
            },
            "XK_DATE": "2025-07-15",
            "QF_MANAGER_NAME": "广东省药品监督管理局",
            "BUSINESS_LICENSE_NUMBER": "91440101MA5CW2UH7B",
            "XC_DATE": "2020-08-10",
            "NUM_": 50
        },
        {
            "ID": "a1176dff622c41bdac4c58b272f759db",
            "EPS_NAME": "濡美（广州）生物工程有限公司",
            "PRODUCT_SN": "粤妆20190141",
            "CITY_CODE": null,
            "XK_COMPLETE_DATE": {
                "date": 10,
                "day": 1,
                "hours": 0,
                "minutes": 0,
                "month": 7,
                "nanos": 0,
                "seconds": 0,
                "time": 1596988800000,
                "timezoneOffset": -480,
                "year": 120
            },
            "XK_DATE": "2024-07-30",
            "QF_MANAGER_NAME": "广东省药品监督管理局",
            "BUSINESS_LICENSE_NUMBER": "91440101MA5CK4103J",
            "XC_DATE": "2020-08-10",
            "NUM_": 51
        },
        {
            "ID": "a2b96909420c4190ad93da774d6985a8",
            "EPS_NAME": "汕头市漫芬化妆品有限公司",
            "PRODUCT_SN": "粤妆20190069",
            "CITY_CODE": null,
            "XK_COMPLETE_DATE": {
                "date": 10,
                "day": 1,
                "hours": 0,
                "minutes": 0,
                "month": 7,
                "nanos": 0,
                "seconds": 0,
                "time": 1596988800000,
                "timezoneOffset": -480,
                "year": 120
            },
            "XK_DATE": "2025-08-09",
            "QF_MANAGER_NAME": "广东省药品监督管理局",
            "BUSINESS_LICENSE_NUMBER": "91440514MA52XNM86T",
            "XC_DATE": "2020-08-10",
            "NUM_": 52
        },
        {
            "ID": "4a6d46d9dc1441dda91cdea8dab587ac",
            "EPS_NAME": "广州新视野化妆品有限公司",
            "PRODUCT_SN": "粤妆20190021",
            "CITY_CODE": null,
            "XK_COMPLETE_DATE": {
                "date": 10,
                "day": 1,
                "hours": 0,
                "minutes": 0,
                "month": 7,
                "nanos": 0,
                "seconds": 0,
                "time": 1596988800000,
                "timezoneOffset": -480,
                "year": 120
            },
            "XK_DATE": "2024-01-27",
            "QF_MANAGER_NAME": "广东省药品监督管理局",
            "BUSINESS_LICENSE_NUMBER": "91440101MA5AXQTY9T",
            "XC_DATE": "2020-08-10",
            "NUM_": 53
        },
        {
            "ID": "9f4c631ba08742c9a8d5ff34bb9304fc",
            "EPS_NAME": "广州七味堂药业有限公司",
            "PRODUCT_SN": "粤妆20170607",
            "CITY_CODE": null,
            "XK_COMPLETE_DATE": {
                "date": 10,
                "day": 1,
                "hours": 0,
                "minutes": 0,
                "month": 7,
                "nanos": 0,
                "seconds": 0,
                "time": 1596988800000,
                "timezoneOffset": -480,
                "year": 120
            },
            "XK_DATE": "2022-12-17",
            "QF_MANAGER_NAME": "广东省药品监督管理局",
            "BUSINESS_LICENSE_NUMBER": "91440101MA59QYY64B",
            "XC_DATE": "2020-08-10",
            "NUM_": 54
        },
        {
            "ID": "a00cf752eef34a15abfcaf0d25312c8b",
            "EPS_NAME": "广州市元旭药业有限公司",
            "PRODUCT_SN": "粤妆20170595",
            "CITY_CODE": null,
            "XK_COMPLETE_DATE": {
                "date": 10,
                "day": 1,
                "hours": 0,
                "minutes": 0,
                "month": 7,
                "nanos": 0,
                "seconds": 0,
                "time": 1596988800000,
                "timezoneOffset": -480,
                "year": 120
            },
            "XK_DATE": "2022-11-30",
            "QF_MANAGER_NAME": "广东省药品监督管理局",
            "BUSINESS_LICENSE_NUMBER": "91440101MA59N2QF3M",
            "XC_DATE": "2020-08-10",
            "NUM_": 55
        },
        {
            "ID": "8b7f11fe876b4e4c9cb13bd0a48ad288",
            "EPS_NAME": "广州茗薇生物科技有限公司",
            "PRODUCT_SN": "粤妆20170222",
            "CITY_CODE": null,
            "XK_COMPLETE_DATE": {
                "date": 10,
                "day": 1,
                "hours": 0,
                "minutes": 0,
                "month": 7,
                "nanos": 0,
                "seconds": 0,
                "time": 1596988800000,
                "timezoneOffset": -480,
                "year": 120
            },
            "XK_DATE": "2022-02-07",
            "QF_MANAGER_NAME": "广东省药品监督管理局",
            "BUSINESS_LICENSE_NUMBER": "91440111070196811M",
            "XC_DATE": "2020-08-10",
            "NUM_": 56
        },
        {
            "ID": "c33d2c663eb34b058a863cd7e2c1d133",
            "EPS_NAME": "清远市立道精细化工有限公司",
            "PRODUCT_SN": "粤妆20160991",
            "CITY_CODE": null,
            "XK_COMPLETE_DATE": {
                "date": 10,
                "day": 1,
                "hours": 0,
                "minutes": 0,
                "month": 7,
                "nanos": 0,
                "seconds": 0,
                "time": 1596988800000,
                "timezoneOffset": -480,
                "year": 120
            },
            "XK_DATE": "2021-11-02",
            "QF_MANAGER_NAME": "广东省药品监督管理局",
            "BUSINESS_LICENSE_NUMBER": "91441881579735857K",
            "XC_DATE": "2020-08-10",
            "NUM_": 57
        },
        {
            "ID": "bdd523c587694808ab9d47a194596f9c",
            "EPS_NAME": "广州楚颜化妆品有限公司",
            "PRODUCT_SN": "粤妆20160292",
            "CITY_CODE": null,
            "XK_COMPLETE_DATE": {
                "date": 10,
                "day": 1,
                "hours": 0,
                "minutes": 0,
                "month": 7,
                "nanos": 0,
                "seconds": 0,
                "time": 1596988800000,
                "timezoneOffset": -480,
                "year": 120
            },
            "XK_DATE": "2024-07-20",
            "QF_MANAGER_NAME": "广东省药品监督管理局",
            "BUSINESS_LICENSE_NUMBER": "91440111788935679B",
            "XC_DATE": "2020-08-10",
            "NUM_": 58
        },
        {
            "ID": "92dac1d996f746a6ae3367a9f6a2e056",
            "EPS_NAME": "广州市娇兰化妆品有限公司",
            "PRODUCT_SN": "粤妆20160010",
            "CITY_CODE": null,
            "XK_COMPLETE_DATE": {
                "date": 10,
                "day": 1,
                "hours": 0,
                "minutes": 0,
                "month": 7,
                "nanos": 0,
                "seconds": 0,
                "time": 1596988800000,
                "timezoneOffset": -480,
                "year": 120
            },
            "XK_DATE": "2021-04-21",
            "QF_MANAGER_NAME": "广东省药品监督管理局",
            "BUSINESS_LICENSE_NUMBER": "91440111716307278E",
            "XC_DATE": "2020-08-10",
            "NUM_": 59
        },
        {
            "ID": "56587ad675914e3a938bd4cce5e959ea",
            "EPS_NAME": "江苏更美科技有限公司",
            "PRODUCT_SN": "苏妆20190029",
            "CITY_CODE": "85",
            "XK_COMPLETE_DATE": {
                "date": 10,
                "day": 1,
                "hours": 0,
                "minutes": 0,
                "month": 7,
                "nanos": 0,
                "seconds": 0,
                "time": 1596988800000,
                "timezoneOffset": -480,
                "year": 120
            },
            "XK_DATE": "2024-11-03",
            "QF_MANAGER_NAME": "江苏省药品监督管理局",
            "BUSINESS_LICENSE_NUMBER": "91320682MA1Y75TX6W",
            "XC_DATE": "2020-08-10",
            "NUM_": 60
        }
    ],
    "orderBy": "createDate",
    "orderType": "desc",
    "pageCount": 355,
    "pageNumber": 4,
    "pageSize": 15,
    "property": "",
    "totalCount": 5316
}