{
    "filesize": "",
    "keyword": "",
    "list": [
        {
            "ID": "086e0efd1f114e8baa25e3c1c5cdf679",
            "EPS_NAME": "浙江艾妍生物科技有限公司",
            "PRODUCT_SN": "浙妆20200008",
            "CITY_CODE": null,
            "XK_COMPLETE_DATE": {
                "date": 7,
                "day": 5,
                "hours": 0,
                "minutes": 0,
                "month": 7,
                "nanos": 0,
                "seconds": 0,
                "time": 1596729600000,
                "timezoneOffset": -480,
                "year": 120
            },
            "XK_DATE": "2025-02-24",
            "QF_MANAGER_NAME": "浙江省药品监督管理局",
            "BUSINESS_LICENSE_NUMBER": "91330683MA2BF4H79T",
            "XC_DATE": "2020-08-07",
            "NUM_": 61
        },
        {
            "ID": "26de753d497c40829e665de2c90d0ac0",
            "EPS_NAME": "东阳市柯芮生物科技有限公司",
            "PRODUCT_SN": "浙妆20190057",
            "CITY_CODE": null,
            "XK_COMPLETE_DATE": {
                "date": 7,
                "day": 5,
                "hours": 0,
                "minutes": 0,
                "month": 7,
                "nanos": 0,
                "seconds": 0,
                "time": 1596729600000,
                "timezoneOffset": -480,
                "year": 120
            },
            "XK_DATE": "2024-11-17",
            "QF_MANAGER_NAME": "浙江省药品监督管理局",
            "BUSINESS_LICENSE_NUMBER": "91330783MA2E983M3J",
            "XC_DATE": "2020-08-07",
            "NUM_": 62
        },
        {
            "ID": "8b8488e34ab84453996024f3aaaa9e3d",
            "EPS_NAME": "广州恒宁千源科技有限公司",
            "PRODUCT_SN": "粤妆20200143",
            "CITY_CODE": null,
            "XK_COMPLETE_DATE": {
                "date": 7,
                "day": 5,
                "hours": 0,
                "minutes": 0,
                "month": 7,
                "nanos": 0,
                "seconds": 0,
                "time": 1596729600000,
                "timezoneOffset": -480,
                "year": 120
            },
            "XK_DATE": "2025-08-06",
            "QF_MANAGER_NAME": "广东省药品监督管理局",
            "BUSINESS_LICENSE_NUMBER": "91440101MA5CTU488P",
            "XC_DATE": "2020-08-07",
            "NUM_": 63
        },
        {
            "ID": "319770a7a4664b2bbe9ef77bd9c91148",
            "EPS_NAME": "广州奢嫩生物科技有限公司",
            "PRODUCT_SN": "粤妆20200142",
            "CITY_CODE": null,
            "XK_COMPLETE_DATE": {
                "date": 7,
                "day": 5,
                "hours": 0,
                "minutes": 0,
                "month": 7,
                "nanos": 0,
                "seconds": 0,
                "time": 1596729600000,
                "timezoneOffset": -480,
                "year": 120
            },
            "XK_DATE": "2025-08-06",
            "QF_MANAGER_NAME": "广东省药品监督管理局",
            "BUSINESS_LICENSE_NUMBER": "91440101MA5D5MP209",
            "XC_DATE": "2020-08-07",
            "NUM_": 64
        },
        {
            "ID": "f0ec03b4a6a64823b5362e8d3504ec6d",
            "EPS_NAME": "广州皇伽医疗用品有限公司",
            "PRODUCT_SN": "粤妆20200141",
            "CITY_CODE": null,
            "XK_COMPLETE_DATE": {
                "date": 7,
                "day": 5,
                "hours": 0,
                "minutes": 0,
                "month": 7,
                "nanos": 0,
                "seconds": 0,
                "time": 1596729600000,
                "timezoneOffset": -480,
                "year": 120
            },
            "XK_DATE": "2025-08-06",
            "QF_MANAGER_NAME": "广东省药品监督管理局",
            "BUSINESS_LICENSE_NUMBER": "91440101MA5D581463",
            "XC_DATE": "2020-08-07",
            "NUM_": 65
        },
        {
            "ID": "2d73c6a6178846b892a5a1c813e113e7",
            "EPS_NAME": "广州莱梧生物科技有限公司",
            "PRODUCT_SN": "粤妆20200030",
            "CITY_CODE": null,
            "XK_COMPLETE_DATE": {
                "date": 7,
                "day": 5,
                "hours": 0,
                "minutes": 0,
                "month": 7,
                "nanos": 0,
                "seconds": 0,
                "time": 1596729600000,
                "timezoneOffset": -480,
                "year": 120
            },
            "XK_DATE": "2025-01-19",
            "QF_MANAGER_NAME": "广东省药品监督管理局",
            "BUSINESS_LICENSE_NUMBER": "91440101MA5CXL0B4C",
            "XC_DATE": "2020-08-07",
            "NUM_": 66
        },
        {
            "ID": "afcf987c046b42a494600c7c211555ed",
            "EPS_NAME": "广州市明月亮化妆品有限公司",
            "PRODUCT_SN": "粤妆20170275",
            "CITY_CODE": null,
            "XK_COMPLETE_DATE": {
                "date": 7,
                "day": 5,
                "hours": 0,
                "minutes": 0,
                "month": 7,
                "nanos": 0,
                "seconds": 0,
                "time": 1596729600000,
                "timezoneOffset": -480,
                "year": 120
            },
            "XK_DATE": "2022-02-16",
            "QF_MANAGER_NAME": "广东省药品监督管理局",
            "BUSINESS_LICENSE_NUMBER": "91440111718112749M",
            "XC_DATE": "2020-08-07",
            "NUM_": 67
        },
        {
            "ID": "64b3728edcc54e1dae04b5db867d63a1",
            "EPS_NAME": "广州暨创医美生物科技有限公司",
            "PRODUCT_SN": "粤妆20170221",
            "CITY_CODE": null,
            "XK_COMPLETE_DATE": {
                "date": 7,
                "day": 5,
                "hours": 0,
                "minutes": 0,
                "month": 7,
                "nanos": 0,
                "seconds": 0,
                "time": 1596729600000,
                "timezoneOffset": -480,
                "year": 120
            },
            "XK_DATE": "2022-02-05",
            "QF_MANAGER_NAME": "广东省药品监督管理局",
            "BUSINESS_LICENSE_NUMBER": "91440101MA59DU8U36",
            "XC_DATE": "2020-08-07",
            "NUM_": 68
        },
        {
            "ID": "eacec3addabb47dca28a0774e3127dc3",
            "EPS_NAME": "湖南华泽生物科技有限公司",
            "PRODUCT_SN": "湘妆20200007",
            "CITY_CODE": "190",
            "XK_COMPLETE_DATE": {
                "date": 7,
                "day": 5,
                "hours": 0,
                "minutes": 0,
                "month": 7,
                "nanos": 0,
                "seconds": 0,
                "time": 1596729600000,
                "timezoneOffset": -480,
                "year": 120
            },
            "XK_DATE": "2025-08-06",
            "QF_MANAGER_NAME": "湖南省药品监督管理局",
            "BUSINESS_LICENSE_NUMBER": "91430100MA4QNPUL4L",
            "XC_DATE": "2020-08-07",
            "NUM_": 69
        },
        {
            "ID": "9cdeb8be1f204f928705e4e8f74fc252",
            "EPS_NAME": "中山市小妆生物科技有限公司",
            "PRODUCT_SN": "粤妆20200140",
            "CITY_CODE": null,
            "XK_COMPLETE_DATE": {
                "date": 6,
                "day": 4,
                "hours": 0,
                "minutes": 0,
                "month": 7,
                "nanos": 0,
                "seconds": 0,
                "time": 1596643200000,
                "timezoneOffset": -480,
                "year": 120
            },
            "XK_DATE": "2025-08-05",
            "QF_MANAGER_NAME": "广东省药品监督管理局",
            "BUSINESS_LICENSE_NUMBER": "91442000MA532XH83L",
            "XC_DATE": "2020-08-06",
            "NUM_": 70
        },
        {
            "ID": "7c0904a7c39d48b6af02e1be134ec160",
            "EPS_NAME": "江苏聚源医疗技术有限公司",
            "PRODUCT_SN": "苏妆20190026",
            "CITY_CODE": "92",
            "XK_COMPLETE_DATE": {
                "date": 6,
                "day": 4,
                "hours": 0,
                "minutes": 0,
                "month": 7,
                "nanos": 0,
                "seconds": 0,
                "time": 1596643200000,
                "timezoneOffset": -480,
                "year": 120
            },
            "XK_DATE": "2024-10-15",
            "QF_MANAGER_NAME": "江苏省药品监督管理局",
            "BUSINESS_LICENSE_NUMBER": "91321282MA1YW5TM2J",
            "XC_DATE": "2020-08-06",
            "NUM_": 71
        },
        {
            "ID": "57520e9518f84e3bbbfd7a65d5ee48f2",
            "EPS_NAME": "江苏蒂姬尔生物材料有限公司",
            "PRODUCT_SN": "苏妆20170013",
            "CITY_CODE": "92",
            "XK_COMPLETE_DATE": {
                "date": 6,
                "day": 4,
                "hours": 0,
                "minutes": 0,
                "month": 7,
                "nanos": 0,
                "seconds": 0,
                "time": 1596643200000,
                "timezoneOffset": -480,
                "year": 120
            },
            "XK_DATE": "2022-06-01",
            "QF_MANAGER_NAME": "江苏省药品监督管理局",
            "BUSINESS_LICENSE_NUMBER": "91321291346484487R",
            "XC_DATE": "2020-08-06",
            "NUM_": 72
        },
        {
            "ID": "eb677364833644409a7eee1091c079de",
            "EPS_NAME": "山东汉方日用化妆品有限公司",
            "PRODUCT_SN": "鲁妆20160009",
            "CITY_CODE": null,
            "XK_COMPLETE_DATE": {
                "date": 6,
                "day": 4,
                "hours": 0,
                "minutes": 0,
                "month": 7,
                "nanos": 0,
                "seconds": 0,
                "time": 1596643200000,
                "timezoneOffset": -480,
                "year": 120
            },
            "XK_DATE": "2021-08-28",
            "QF_MANAGER_NAME": "山东省食品药品监督管理局",
            "BUSINESS_LICENSE_NUMBER": "91370102738162866K",
            "XC_DATE": "2020-08-06",
            "NUM_": 73
        },
        {
            "ID": "68319c6952c6433a8e6bd74af9322eba",
            "EPS_NAME": "西藏天慈生物科技有限公司",
            "PRODUCT_SN": "藏妆20160002",
            "CITY_CODE": "313",
            "XK_COMPLETE_DATE": {
                "date": 5,
                "day": 3,
                "hours": 0,
                "minutes": 0,
                "month": 7,
                "nanos": 0,
                "seconds": 0,
                "time": 1596556800000,
                "timezoneOffset": -480,
                "year": 120
            },
            "XK_DATE": "2022-01-03",
            "QF_MANAGER_NAME": "西藏自治区药品监督管理局",
            "BUSINESS_LICENSE_NUMBER": "91540000064687614A",
            "XC_DATE": "2020-08-05",
            "NUM_": 74
        },
        {
            "ID": "3caef55b721f46aaa9c1ab5d78db07ac",
            "EPS_NAME": "奇妙生物科技（广州）有限公司",
            "PRODUCT_SN": "粤妆20200104",
            "CITY_CODE": null,
            "XK_COMPLETE_DATE": {
                "date": 4,
                "day": 2,
                "hours": 0,
                "minutes": 0,
                "month": 7,
                "nanos": 0,
                "seconds": 0,
                "time": 1596470400000,
                "timezoneOffset": -480,
                "year": 120
            },
            "XK_DATE": "2025-06-29",
            "QF_MANAGER_NAME": "广东省药品监督管理局",
            "BUSINESS_LICENSE_NUMBER": "91440101MA5D7W222A",
            "XC_DATE": "2020-08-04",
            "NUM_": 75
        }
    ],
    "orderBy": "createDate",
    "orderType": "desc",
    "pageCount": 355,
    "pageNumber": 5,
    "pageSize": 15,
    "property": "",
    "totalCount": 5316
}