{
    "filesize": "",
    "keyword": "",
    "list": [
        {
            "ID": "a549af98306c4026b723538cd63c9ca5",
            "EPS_NAME": "贵州元水源生物科技有限公司",
            "PRODUCT_SN": "贵妆20200004",
            "CITY_CODE": "246",
            "XK_COMPLETE_DATE": {
                "date": 23,
                "day": 4,
                "hours": 0,
                "minutes": 0,
                "month": 6,
                "nanos": 0,
                "seconds": 0,
                "time": 1595433600000,
                "timezoneOffset": -480,
                "year": 120
            },
            "XK_DATE": "2025-07-22",
            "QF_MANAGER_NAME": "贵州省药品监督管理局",
            "BUSINESS_LICENSE_NUMBER": "91520198MA6HJ5XG1D",
            "XC_DATE": "2020-07-23",
            "NUM_": 136
        },
        {
            "ID": "2725c16508d441e89ab11d9efaf92a6b",
            "EPS_NAME": "广州市煜祺化妆品有限公司",
            "PRODUCT_SN": "粤妆20200127",
            "CITY_CODE": null,
            "XK_COMPLETE_DATE": {
                "date": 22,
                "day": 3,
                "hours": 0,
                "minutes": 0,
                "month": 6,
                "nanos": 0,
                "seconds": 0,
                "time": 1595347200000,
                "timezoneOffset": -480,
                "year": 120
            },
            "XK_DATE": "2025-07-21",
            "QF_MANAGER_NAME": "广东省药品监督管理局",
            "BUSINESS_LICENSE_NUMBER": "91440101MA5D675L3H",
            "XC_DATE": "2020-07-22",
            "NUM_": 137
        },
        {
            "ID": "119691afde8a48ec8680e4b40cb012af",
            "EPS_NAME": "广州溢铭化妆品有限公司",
            "PRODUCT_SN": "粤妆20200126",
            "CITY_CODE": null,
            "XK_COMPLETE_DATE": {
                "date": 22,
                "day": 3,
                "hours": 0,
                "minutes": 0,
                "month": 6,
                "nanos": 0,
                "seconds": 0,
                "time": 1595347200000,
                "timezoneOffset": -480,
                "year": 120
            },
            "XK_DATE": "2025-07-21",
            "QF_MANAGER_NAME": "广东省药品监督管理局",
            "BUSINESS_LICENSE_NUMBER": "91440101MA5D2G6J6G",
            "XC_DATE": "2020-07-22",
            "NUM_": 138
        },
        {
            "ID": "56feb7d6a7104e07909000b6b0bc805c",
            "EPS_NAME": "广东省可约生物科技有限公司",
            "PRODUCT_SN": "粤妆20200125",
            "CITY_CODE": null,
            "XK_COMPLETE_DATE": {
                "date": 22,
                "day": 3,
                "hours": 0,
                "minutes": 0,
                "month": 6,
                "nanos": 0,
                "seconds": 0,
                "time": 1595347200000,
                "timezoneOffset": -480,
                "year": 120
            },
            "XK_DATE": "2025-07-21",
            "QF_MANAGER_NAME": "广东省药品监督管理局",
            "BUSINESS_LICENSE_NUMBER": "91440606MA543D159W",
            "XC_DATE": "2020-07-22",
            "NUM_": 139
        },
        {
            "ID": "dc55491b395d4a42ba51aa329dd24ba3",
            "EPS_NAME": "广东妮妲化妆品制造有限公司",
            "PRODUCT_SN": "粤妆20170087",
            "CITY_CODE": null,
            "XK_COMPLETE_DATE": {
                "date": 22,
                "day": 3,
                "hours": 0,
                "minutes": 0,
                "month": 6,
                "nanos": 0,
                "seconds": 0,
                "time": 1595347200000,
                "timezoneOffset": -480,
                "year": 120
            },
            "XK_DATE": "2022-01-15",
            "QF_MANAGER_NAME": "广东省药品监督管理局",
            "BUSINESS_LICENSE_NUMBER": "91440101MA59FAB70X",
            "XC_DATE": "2020-07-22",
            "NUM_": 140
        },
        {
            "ID": "be1ffcdae96f4496903212144e161e1f",
            "EPS_NAME": "广州市舒悦化妆品有限公司",
            "PRODUCT_SN": "粤妆20161106",
            "CITY_CODE": null,
            "XK_COMPLETE_DATE": {
                "date": 22,
                "day": 3,
                "hours": 0,
                "minutes": 0,
                "month": 6,
                "nanos": 0,
                "seconds": 0,
                "time": 1595347200000,
                "timezoneOffset": -480,
                "year": 120
            },
            "XK_DATE": "2021-11-09",
            "QF_MANAGER_NAME": "广东省药品监督管理局",
            "BUSINESS_LICENSE_NUMBER": "91440111MA59E03Y8G",
            "XC_DATE": "2020-07-22",
            "NUM_": 141
        },
        {
            "ID": "75c092f69d87450d905d5855471fad7d",
            "EPS_NAME": "浙江大美化妆品有限公司",
            "PRODUCT_SN": "浙妆20200027",
            "CITY_CODE": null,
            "XK_COMPLETE_DATE": {
                "date": 21,
                "day": 2,
                "hours": 0,
                "minutes": 0,
                "month": 6,
                "nanos": 0,
                "seconds": 0,
                "time": 1595260800000,
                "timezoneOffset": -480,
                "year": 120
            },
            "XK_DATE": "2025-07-20",
            "QF_MANAGER_NAME": "浙江省药品监督管理局",
            "BUSINESS_LICENSE_NUMBER": "91330783MA2HQ5LF8J",
            "XC_DATE": "2020-07-21",
            "NUM_": 142
        },
        {
            "ID": "86d5786716384b63b5fe7e343647d633",
            "EPS_NAME": "义乌市思凯琦化妆品有限公司",
            "PRODUCT_SN": "浙妆20200025",
            "CITY_CODE": null,
            "XK_COMPLETE_DATE": {
                "date": 21,
                "day": 2,
                "hours": 0,
                "minutes": 0,
                "month": 6,
                "nanos": 0,
                "seconds": 0,
                "time": 1595260800000,
                "timezoneOffset": -480,
                "year": 120
            },
            "XK_DATE": "2025-07-20",
            "QF_MANAGER_NAME": "浙江省药品监督管理局",
            "BUSINESS_LICENSE_NUMBER": "91330782MA2HR7678J",
            "XC_DATE": "2020-07-21",
            "NUM_": 143
        },
        {
            "ID": "637fed995cd54e73ba75487afffd5257",
            "EPS_NAME": "金华市汇美化妆品有限公司",
            "PRODUCT_SN": "浙妆20160279",
            "CITY_CODE": null,
            "XK_COMPLETE_DATE": {
                "date": 21,
                "day": 2,
                "hours": 0,
                "minutes": 0,
                "month": 6,
                "nanos": 0,
                "seconds": 0,
                "time": 1595260800000,
                "timezoneOffset": -480,
                "year": 120
            },
            "XK_DATE": "2021-12-20",
            "QF_MANAGER_NAME": "浙江省药品监督管理局",
            "BUSINESS_LICENSE_NUMBER": "91330701087368464U",
            "XC_DATE": "2020-07-21",
            "NUM_": 144
        },
        {
            "ID": "d5465fdf09db48239114ef8b9bb1b59a",
            "EPS_NAME": "广东伊妍生物科技有限公司",
            "PRODUCT_SN": "粤妆20200124",
            "CITY_CODE": null,
            "XK_COMPLETE_DATE": {
                "date": 21,
                "day": 2,
                "hours": 0,
                "minutes": 0,
                "month": 6,
                "nanos": 0,
                "seconds": 0,
                "time": 1595260800000,
                "timezoneOffset": -480,
                "year": 120
            },
            "XK_DATE": "2025-07-20",
            "QF_MANAGER_NAME": "广东省药品监督管理局",
            "BUSINESS_LICENSE_NUMBER": "91440607MA53U5T6XM",
            "XC_DATE": "2020-07-21",
            "NUM_": 145
        },
        {
            "ID": "4fca34a8255f442c9ad4364fc5e27aaa",
            "EPS_NAME": "广东鸿懿化妆品有限公司",
            "PRODUCT_SN": "粤妆20200123",
            "CITY_CODE": null,
            "XK_COMPLETE_DATE": {
                "date": 21,
                "day": 2,
                "hours": 0,
                "minutes": 0,
                "month": 6,
                "nanos": 0,
                "seconds": 0,
                "time": 1595260800000,
                "timezoneOffset": -480,
                "year": 120
            },
            "XK_DATE": "2025-07-20",
            "QF_MANAGER_NAME": "广东省药品监督管理局",
            "BUSINESS_LICENSE_NUMBER": "91440608MA54CR324Y",
            "XC_DATE": "2020-07-21",
            "NUM_": 146
        },
        {
            "ID": "7f851607b2174c488dd30da96c583c31",
            "EPS_NAME": "广东黛美诗生物科技有限公司",
            "PRODUCT_SN": "粤妆20200122",
            "CITY_CODE": null,
            "XK_COMPLETE_DATE": {
                "date": 21,
                "day": 2,
                "hours": 0,
                "minutes": 0,
                "month": 6,
                "nanos": 0,
                "seconds": 0,
                "time": 1595260800000,
                "timezoneOffset": -480,
                "year": 120
            },
            "XK_DATE": "2025-07-20",
            "QF_MANAGER_NAME": "广东省药品监督管理局",
            "BUSINESS_LICENSE_NUMBER": "91440607MA549FXL1X",
            "XC_DATE": "2020-07-21",
            "NUM_": 147
        },
        {
            "ID": "a384666f9fe84d019a49347a59bdb097",
            "EPS_NAME": "佛山市菲玛斯日用品有限公司",
            "PRODUCT_SN": "粤妆20200121",
            "CITY_CODE": null,
            "XK_COMPLETE_DATE": {
                "date": 21,
                "day": 2,
                "hours": 0,
                "minutes": 0,
                "month": 6,
                "nanos": 0,
                "seconds": 0,
                "time": 1595260800000,
                "timezoneOffset": -480,
                "year": 120
            },
            "XK_DATE": "2025-07-20",
            "QF_MANAGER_NAME": "广东省药品监督管理局",
            "BUSINESS_LICENSE_NUMBER": "91440605MA4WND5Y4A",
            "XC_DATE": "2020-07-21",
            "NUM_": 148
        },
        {
            "ID": "af533c6337034a96afeed43083d7fc36",
            "EPS_NAME": "广州市宝蓝化妆品有限公司",
            "PRODUCT_SN": "粤妆20161065",
            "CITY_CODE": null,
            "XK_COMPLETE_DATE": {
                "date": 21,
                "day": 2,
                "hours": 0,
                "minutes": 0,
                "month": 6,
                "nanos": 0,
                "seconds": 0,
                "time": 1595260800000,
                "timezoneOffset": -480,
                "year": 120
            },
            "XK_DATE": "2021-11-06",
            "QF_MANAGER_NAME": "广东省药品监督管理局",
            "BUSINESS_LICENSE_NUMBER": "91440101591548448D",
            "XC_DATE": "2020-07-21",
            "NUM_": 149
        },
        {
            "ID": "208eb3b1fd2242288018a4e46a69b17b",
            "EPS_NAME": "广州市白云区优致化妆品厂",
            "PRODUCT_SN": "粤妆20160736",
            "CITY_CODE": null,
            "XK_COMPLETE_DATE": {
                "date": 21,
                "day": 2,
                "hours": 0,
                "minutes": 0,
                "month": 6,
                "nanos": 0,
                "seconds": 0,
                "time": 1595260800000,
                "timezoneOffset": -480,
                "year": 120
            },
            "XK_DATE": "2021-09-12",
            "QF_MANAGER_NAME": "广东省药品监督管理局",
            "BUSINESS_LICENSE_NUMBER": "9144011159617334X0",
            "XC_DATE": "2020-07-21",
            "NUM_": 150
        }
    ],
    "orderBy": "createDate",
    "orderType": "desc",
    "pageCount": 355,
    "pageNumber": 10,
    "pageSize": 15,
    "property": "",
    "totalCount": 5316
}