{
    "filesize": "",
    "keyword": "",
    "list": [
        {
            "ID": "8062a5a7858a4a0dbde6ce0a6647c7bb",
            "EPS_NAME": "广州温达精细化工有限公司",
            "PRODUCT_SN": "粤妆20170254",
            "CITY_CODE": null,
            "XK_COMPLETE_DATE": {
                "date": 29,
                "day": 3,
                "hours": 0,
                "minutes": 0,
                "month": 6,
                "nanos": 0,
                "seconds": 0,
                "time": 1595952000000,
                "timezoneOffset": -480,
                "year": 120
            },
            "XK_DATE": "2022-02-15",
            "QF_MANAGER_NAME": "广东省药品监督管理局",
            "BUSINESS_LICENSE_NUMBER": "914401117661001286",
            "XC_DATE": "2020-07-29",
            "NUM_": 106
        },
        {
            "ID": "c4a090c366534bc29cf337ca05b5ccee",
            "EPS_NAME": "广州市依莱丽化妆品有限公司",
            "PRODUCT_SN": "粤妆20170148",
            "CITY_CODE": null,
            "XK_COMPLETE_DATE": {
                "date": 29,
                "day": 3,
                "hours": 0,
                "minutes": 0,
                "month": 6,
                "nanos": 0,
                "seconds": 0,
                "time": 1595952000000,
                "timezoneOffset": -480,
                "year": 120
            },
            "XK_DATE": "2022-01-23",
            "QF_MANAGER_NAME": "广东省药品监督管理局",
            "BUSINESS_LICENSE_NUMBER": "91440101498319357U",
            "XC_DATE": "2020-07-29",
            "NUM_": 107
        },
        {
            "ID": "ea84e6f18f3141a49ec46d5ec0dd7ec5",
            "EPS_NAME": "广州市白云区龙归名匠化妆品厂",
            "PRODUCT_SN": "粤妆20170040",
            "CITY_CODE": null,
            "XK_COMPLETE_DATE": {
                "date": 29,
                "day": 3,
                "hours": 0,
                "minutes": 0,
                "month": 6,
                "nanos": 0,
                "seconds": 0,
                "time": 1595952000000,
                "timezoneOffset": -480,
                "year": 120
            },
            "XK_DATE": "2022-01-05",
            "QF_MANAGER_NAME": "广东省药品监督管理局",
            "BUSINESS_LICENSE_NUMBER": "92440101L00863060H",
            "XC_DATE": "2020-07-29",
            "NUM_": 108
        },
        {
            "ID": "67d45b18613549bab3dda4b12bbf6226",
            "EPS_NAME": "广州康芙莱生物科技有限公司",
            "PRODUCT_SN": "粤妆20170039",
            "CITY_CODE": null,
            "XK_COMPLETE_DATE": {
                "date": 29,
                "day": 3,
                "hours": 0,
                "minutes": 0,
                "month": 6,
                "nanos": 0,
                "seconds": 0,
                "time": 1595952000000,
                "timezoneOffset": -480,
                "year": 120
            },
            "XK_DATE": "2022-01-05",
            "QF_MANAGER_NAME": "广东省药品监督管理局",
            "BUSINESS_LICENSE_NUMBER": "91440111583378610Q",
            "XC_DATE": "2020-07-29",
            "NUM_": 109
        },
        {
            "ID": "d8c72e8943894a65aac6b2a6e6a79726",
            "EPS_NAME": "艾薇儿（广州）生物科技有限公司",
            "PRODUCT_SN": "粤妆20161081",
            "CITY_CODE": null,
            "XK_COMPLETE_DATE": {
                "date": 29,
                "day": 3,
                "hours": 0,
                "minutes": 0,
                "month": 6,
                "nanos": 0,
                "seconds": 0,
                "time": 1595952000000,
                "timezoneOffset": -480,
                "year": 120
            },
            "XK_DATE": "2021-11-08",
            "QF_MANAGER_NAME": "广东省药品监督管理局",
            "BUSINESS_LICENSE_NUMBER": "91440111052554072N",
            "XC_DATE": "2020-07-29",
            "NUM_": 110
        },
        {
            "ID": "b080755f5ca9424eae52c61825d99aa8",
            "EPS_NAME": "广州诺德丽诗化妆品有限公司",
            "PRODUCT_SN": "粤妆20160978",
            "CITY_CODE": null,
            "XK_COMPLETE_DATE": {
                "date": 29,
                "day": 3,
                "hours": 0,
                "minutes": 0,
                "month": 6,
                "nanos": 0,
                "seconds": 0,
                "time": 1595952000000,
                "timezoneOffset": -480,
                "year": 120
            },
            "XK_DATE": "2021-10-23",
            "QF_MANAGER_NAME": "广东省药品监督管理局",
            "BUSINESS_LICENSE_NUMBER": "914401115544094303",
            "XC_DATE": "2020-07-29",
            "NUM_": 111
        },
        {
            "ID": "9fd84240edcd4990abe38d1351230434",
            "EPS_NAME": "广州德家日用品有限公司",
            "PRODUCT_SN": "粤妆20160895",
            "CITY_CODE": null,
            "XK_COMPLETE_DATE": {
                "date": 29,
                "day": 3,
                "hours": 0,
                "minutes": 0,
                "month": 6,
                "nanos": 0,
                "seconds": 0,
                "time": 1595952000000,
                "timezoneOffset": -480,
                "year": 120
            },
            "XK_DATE": "2021-09-28",
            "QF_MANAGER_NAME": "广东省药品监督管理局",
            "BUSINESS_LICENSE_NUMBER": "91440113329529444H",
            "XC_DATE": "2020-07-29",
            "NUM_": 112
        },
        {
            "ID": "026f88d7938a4e9aa3c5ee34f6b6712c",
            "EPS_NAME": "三力生物科技（大连）有限公司",
            "PRODUCT_SN": "辽妆20200004",
            "CITY_CODE": "287",
            "XK_COMPLETE_DATE": {
                "date": 29,
                "day": 3,
                "hours": 0,
                "minutes": 0,
                "month": 6,
                "nanos": 0,
                "seconds": 0,
                "time": 1595952000000,
                "timezoneOffset": -480,
                "year": 120
            },
            "XK_DATE": "2025-07-12",
            "QF_MANAGER_NAME": "辽宁省药品监督管理局",
            "BUSINESS_LICENSE_NUMBER": "91210213MA103GRB0P",
            "XC_DATE": "2020-07-29",
            "NUM_": 113
        },
        {
            "ID": "ed9f2964df024b22af19a6e5fdd0f411",
            "EPS_NAME": "熊津蕊痕化妆品（沈阳）有限公司",
            "PRODUCT_SN": "辽妆20180002",
            "CITY_CODE": "285",
            "XK_COMPLETE_DATE": {
                "date": 29,
                "day": 3,
                "hours": 0,
                "minutes": 0,
                "month": 6,
                "nanos": 0,
                "seconds": 0,
                "time": 1595952000000,
                "timezoneOffset": -480,
                "year": 120
            },
            "XK_DATE": "2023-03-25",
            "QF_MANAGER_NAME": "辽宁省药品监督管理局",
            "BUSINESS_LICENSE_NUMBER": "91210112MA0UJ0788K",
            "XC_DATE": "2020-07-29",
            "NUM_": 114
        },
        {
            "ID": "565539c8b9fb4279b01d62c580c44615",
            "EPS_NAME": "成都赛维芦荟制品有限公司",
            "PRODUCT_SN": "川妆20160029",
            "CITY_CODE": "165",
            "XK_COMPLETE_DATE": {
                "date": 28,
                "day": 2,
                "hours": 0,
                "minutes": 0,
                "month": 6,
                "nanos": 0,
                "seconds": 0,
                "time": 1595865600000,
                "timezoneOffset": -480,
                "year": 120
            },
            "XK_DATE": "2021-12-05",
            "QF_MANAGER_NAME": "四川省药品监督管理局",
            "BUSINESS_LICENSE_NUMBER": "915101002019950753",
            "XC_DATE": "2020-07-28",
            "NUM_": 115
        },
        {
            "ID": "d82345168acb46f8a8b1fad2c8b5adce",
            "EPS_NAME": "浙江至元生物科技有限公司",
            "PRODUCT_SN": "浙妆20200022",
            "CITY_CODE": null,
            "XK_COMPLETE_DATE": {
                "date": 27,
                "day": 1,
                "hours": 0,
                "minutes": 0,
                "month": 6,
                "nanos": 0,
                "seconds": 0,
                "time": 1595779200000,
                "timezoneOffset": -480,
                "year": 120
            },
            "XK_DATE": "2025-06-08",
            "QF_MANAGER_NAME": "浙江省药品监督管理局",
            "BUSINESS_LICENSE_NUMBER": "91330185MA2GYUU54C ",
            "XC_DATE": "2020-07-27",
            "NUM_": 116
        },
        {
            "ID": "eaa8279667d54798adbf32f3e5f67103",
            "EPS_NAME": "靓密码生物科技（珠海）有限公司",
            "PRODUCT_SN": "粤妆20200130",
            "CITY_CODE": null,
            "XK_COMPLETE_DATE": {
                "date": 27,
                "day": 1,
                "hours": 0,
                "minutes": 0,
                "month": 6,
                "nanos": 0,
                "seconds": 0,
                "time": 1595779200000,
                "timezoneOffset": -480,
                "year": 120
            },
            "XK_DATE": "2025-07-26",
            "QF_MANAGER_NAME": "广东省药品监督管理局",
            "BUSINESS_LICENSE_NUMBER": "91440404MA54BA5GXX",
            "XC_DATE": "2020-07-27",
            "NUM_": 117
        },
        {
            "ID": "e76b6207571f44bebfe066b0d3937226",
            "EPS_NAME": "佛山市洛丽奇科技有限公司",
            "PRODUCT_SN": "粤妆20200129",
            "CITY_CODE": null,
            "XK_COMPLETE_DATE": {
                "date": 27,
                "day": 1,
                "hours": 0,
                "minutes": 0,
                "month": 6,
                "nanos": 0,
                "seconds": 0,
                "time": 1595779200000,
                "timezoneOffset": -480,
                "year": 120
            },
            "XK_DATE": "2025-07-26",
            "QF_MANAGER_NAME": "广东省药品监督管理局",
            "BUSINESS_LICENSE_NUMBER": "91440605MA543G4N34",
            "XC_DATE": "2020-07-27",
            "NUM_": 118
        },
        {
            "ID": "fb682009b64940bcb7293eb346631696",
            "EPS_NAME": "广东超妍御杰生物技术有限公司",
            "PRODUCT_SN": "粤妆20200128",
            "CITY_CODE": null,
            "XK_COMPLETE_DATE": {
                "date": 27,
                "day": 1,
                "hours": 0,
                "minutes": 0,
                "month": 6,
                "nanos": 0,
                "seconds": 0,
                "time": 1595779200000,
                "timezoneOffset": -480,
                "year": 120
            },
            "XK_DATE": "2025-07-26",
            "QF_MANAGER_NAME": "广东省药品监督管理局",
            "BUSINESS_LICENSE_NUMBER": "91440605MA54FFMH1Y",
            "XC_DATE": "2020-07-27",
            "NUM_": 119
        },
        {
            "ID": "1ca0c03e4ea645e7b6097c7a0c80be69",
            "EPS_NAME": "广州市珂晗生物科技有限公司",
            "PRODUCT_SN": "粤妆20180181",
            "CITY_CODE": null,
            "XK_COMPLETE_DATE": {
                "date": 27,
                "day": 1,
                "hours": 0,
                "minutes": 0,
                "month": 6,
                "nanos": 0,
                "seconds": 0,
                "time": 1595779200000,
                "timezoneOffset": -480,
                "year": 120
            },
            "XK_DATE": "2023-08-13",
            "QF_MANAGER_NAME": "广东省药品监督管理局",
            "BUSINESS_LICENSE_NUMBER": "91440101MA5ARU2M7R",
            "XC_DATE": "2020-07-27",
            "NUM_": 120
        }
    ],
    "orderBy": "createDate",
    "orderType": "desc",
    "pageCount": 355,
    "pageNumber": 8,
    "pageSize": 15,
    "property": "",
    "totalCount": 5316
}